{
"spider":"https://raw.iqiq.io/w6566/tvlive/main/box/spider/wj240109.jar",
"warningText":"正在加载!请稍后!Sina微博@·王健·",
"wallpaper":"https://raw.iqiq.io/w6566/tvlive/main/wallpaper/8K01.jpg",

"lives":[
{"name":"无界🌏IPV6+IPV4","type":0,"url":"https://raw.iqiq.io/w6566/tvlive/main/box/live/live.txt","playerType":1,"ua":"okhttp/3.15","epg":"http://epg.112114.xyz/?ch={name}&date={date}","logo":"https://epg.112114.xyz/logo/{name}.png"},
{"name":"无界🌏16万部MV","type":0,"url":"https://raw.iqiq.io/w6566/tvlive/main/box/live/MTV.txt"},
{"name":"无界🌏Radio","type":0,"url":"https://raw.iqiq.io/w6566/tvlive/main/box/live/radio.m3u","playerType":1},
{"name":"FMM🌏IPV6","type":0,"url":"https://live.fanmingming.com/tv/m3u/ipv6.m3u","playerType":1,"ua":"okhttp/3.15","epg":"http://epg.112114.xyz/?ch={name}&date={date}","logo":"https://epg.112114.xyz/logo/{name}.png"}, 
{"name":"饭太硬🌏IPV6+IPV4","type":0,"url":"https://xhdwc.tk/tvlive.txt","playerType":1,"ua": "okhttp/3.15","epg":"http://epg.112114.xyz/?ch={name}&date={date}","logo": "https://epg.112114.xyz/logo/{name}.png"},
{"name":"肥猫🌏IPV6+IPV4","type":0,"url":"http://我不是.肥猫.live/TV/tvzb.txt","playerType":1,"epg":"http://epg.112114.xyz/?ch={name}&date={date}","logo":"https://epg.112114.xyz/logo/{name}.png"},
{"name":"俊于🌏IPV6+IPV4","type":0,"url":"http://home.jundie.top:81/Cat/tv/live.txt","playerType":1,"epg":"http://epg.112114.xyz/?ch={name}&date={date}","logo": "https://epg.112114.xyz/logo/{name}.png"},
{"name":"YanG🌏IPV6+IPV4","type":0,"url":"https://fongmi.cachefly.net/YanG-1989/m3u/main/Gather.m3u","playerType":1,"epg":"http://epg.112114.xyz/?ch={name}&date={date}","logo":"https://epg.112114.xyz/logo/{name}.png"},
{"name":"YueChan🌏IPV6","type":0,"url":"https://fongmi.cachefly.net/YueChan/Live/main/IPTV.m3u","playerType":1,"epg":"http://epg.112114.xyz/?ch={name}&date={date}","logo":"https://epg.112114.xyz/logo/{name}.png"},
{"name":"Yoursmile7🌏PV6+IPV4","type":0,"url":"https://agit.ai/Yoursmile7/TVBox/branch/master/live.txt","playerType":1,"epg":"http://epg.112114.xyz/?ch={name}&date={date}","logo":"https://epg.112114.xyz/logo/{name}.png"},
{"name":"肥羊🌏斗鱼","type":0,"url":"https://fongmi.cachefly.net/Ftindy/IPTV-URL/main/douyuyqk.m3u","playerType":1},
{"name":"YuanHsing🌏YouTube","type":0,"url":"https://fongmi.cachefly.net/YuanHsing/YouTube_to_m3u/main/youtube.m3u"}, 
{"name":"无界🌏Beta🈲","type":0,"url":"https://raw.iqiq.io/w6566/tvlive/main/box/live/beta.txt","playerType":1,"ua":"okhttp/3.15","epg":"http://epg.112114.xyz/?ch={name}&date={date}","logo":"https://epg.112114.xyz/logo/{name}.png"}

],


"sites":[
    
{"key":"豆瓣","name":"无界🌏Ver.240203","type":3,"api":"https://raw.iqiq.io/w6566/tvlive/main/box/js/drpy2.min.js","ext":"https://raw.iqiq.io/w6566/tvlive/main/box/js/douban.js"},
{"key":"商店","name":"无界🌏应用商店","type":3,"api":"csp_Market","searchable":0,"changeable":0,"ext":"https://raw.iqiq.io/w6566/tvlive/main/box/json/应用商店.json","jar":"https://raw.iqiq.io/w6566/tvlive/main/box/spider/app.jar"},
{"key":"直播转点播","name":"无界🌏电视直播","type":3,"searchable":0,"api":"https://raw.iqiq.io/w6566/tvlive/main/box/js/live2vod.js","ext":"https://raw.iqiq.io/w6566/tvlive/main/box/json/live.json"},
{"key":"本地","name":"无界🌏本地存储","type":3,"api":"csp_LocalFile","searchable":0,"changeable":0},
{"key":"KungFu404","name":"无界🌏设置Token","type":3,"api":"csp_KungFu404","searchable":0,"filterable":0,"changeable":0,"ext":"http://127.0.0.1:9978/file/tvbox/tok.txt","jar":"https://raw.iqiq.io/w6566/tvlive/main/box/spider/alibaba.jar"},
{"key":"AList","name":"无界🌏AList","type":3,"api":"csp_AList","searchable":1,"changeable":0,"ext":"https://raw.iqiq.io/w6566/tvlive/main/box/json/alist.json"},
{"key":"WebDAV","name":"无界🌏WebDAV","type":3,"api":"csp_WebDAV","searchable":1,"changeable":0,"ext":"https://raw.iqiq.io/w6566/tvlive/main/box/json/webdav.json"},
{"key":"叨观荐影","name":"无界🌏影视预告","type":3,"api":"csp_YGP","searchable":0,"quickSearch":0,"changeable":0,"jar":"https://raw.iqiq.io/w6566/tvlive/main/box/spider/fty.jar"},
{"key":"csp_XBPQ_6V","name":"无界🌏磁力[4K]","type":3,"api":"csp_XBPQ","searchable":1,"quickSearch":1,"filterable":1,"ext":"https://raw.iqiq.io/w6566/tvlive/main/box/json/6V磁.json"},
{"key":"玩偶哥哥","name":"无界🌏玩偶[4K]","type":3,"api":"csp_WoGG","searchable":1,"quickSearch":1,"changeable":0,"ext":"http://127.0.0.1:9978/file/tvbox/token.txt+4k|auto|fhd$$$https://api.wogg.xyz/$$$弹","jar":"https://raw.iqiq.io/w6566/tvlive/main/box/spider/fty.jar"},
{"key":"searchEx","name":"无界🌏聚搜[4K]","type":3,"jar":"https://raw.iqiq.io/w6566/tvlive/main/box/spider/YSZYZ.jar","api":"csp_AliYunPanSearchEx","searchable":1,"quickSearch":1,"filterable":1,"ext":"https://raw.iqiq.io/w6566/tvlive/main/box/json/aliyunpansearch.json#阿里#无界"},
{"key":"4KHDR","name":"无界🌏HDR[4K]","type":3,"searchable":1,"quickSearch":1,"changeable":0,"api":"https://raw.iqiq.io/w6566/tvlive/main/box/js/drpy2.min.js","ext":"https://raw.iqiq.io/w6566/tvlive/main/box/js/4KHDR2.js"},
{"key":"影探","name":"无界🌏影探[4K]","type":3,"api":"https://raw.iqiq.io/w6566/tvlive/main/box/js/drpy2.min.js","ext":"https://raw.iqiq.io/w6566/tvlive/main/box/js/影探.js","jar":"https://raw.iqiq.io/w6566/tvlive/main/box/spider/PandaQ240203.jar"},
{"key":"爱奇艺","name":"无界🌏爱奇异[官]","type":3,"api":"https://raw.iqiq.io/w6566/tvlive/main/box/js/drpy2.min.js","ext":"https://raw.iqiq.io/w6566/tvlive/main/box/js/iqiyi.js"},
{"key":"优酷","name":"无界🌏优酷[官]","type":3,"api":"https://raw.iqiq.io/w6566/tvlive/main/box/js/drpy2.min.js","ext":"https://raw.iqiq.io/w6566/tvlive/main/box/js/youku.js"},
{"key":"腾讯","name":"无界🌏腾讯[官]","type":3,"api":"https://raw.iqiq.io/w6566/tvlive/main/box/js/drpy2.min.js","ext":"https://raw.iqiq.io/w6566/tvlive/main/box/js/qq.js"},
{"key":"芒果","name":"无界🌏芒果[官]","type":3,"api":"https://raw.iqiq.io/w6566/tvlive/main/box/js/drpy2.min.js","ext":"https://raw.iqiq.io/w6566/tvlive/main/box/js/mgtv.js"},
//影视综合
{"key":"南瓜js","name":"无界🌏南瓜影视js","type":3,"api":"https://raw.iqiq.io/w6566/tvlive/main/box/js/drpy2.min.js","searchable":1,"quickSearch":1,"filterable":1,"ext":"https://raw.iqiq.io/w6566/tvlive/main/box/js/nangua.js"},
{"key":"南瓜","name":"无界🌏南瓜影视","type":3,"api":"csp_NanGua","playerType":2,"searchable":1,"quickSearch":1,"changeable":1,"jar":"https://raw.iqiq.io/w6566/tvlive/main/box/spider/fty.jar"},
{"key":"低端js","name":"无界🌏低端影视js","type":3,"api":"https://raw.iqiq.io/w6566/tvlive/main/box/js/drpy2.min.js","searchable":1,"playerType":2,"quickSearch":1,"filterable":1,"ext":"https://raw.iqiq.io/w6566/tvlive/main/box/js/ddys.js"},
{"key":"低端","name":"无界🌏低端影视","type":3,"api":"csp_Ddrk","playerType":"2","searchable":1,"quickSearch":1,"changeable":1,"jar":"https://raw.iqiq.io/w6566/tvlive/main/box/spider/fty.jar"},
{"key":"厂长js","name":"无界🌏厂长影视js","type":3,"api":"https://raw.iqiq.io/w6566/tvlive/main/box/js/drpy2.min.js","searchable":1,"quickSearch":1,"filterable":1,"ext":"https://raw.iqiq.io/w6566/tvlive/main/box/js/czspp.js"},
{"key":"厂长","name":"无界🌏厂长影视","type":3,"api":"csp_Czsapp","playerType":2,"searchable":1,"quickSearch":1,"changeable":1,"ext":"https://www.czzy66.com/","jar":"https://raw.iqiq.io/w6566/tvlive/main/box/spider/fty.jar"},
{"key":"利播js","name":"无界🌏利播影视js","type":3,"api":"https://raw.iqiq.io/w6566/tvlive/main/box/js/drpy2.min.js","searchable":1,"quickSearch":1,"filterable":1,"ext":"https://raw.iqiq.io/w6566/tvlive/main/box/js/libvio.js"},
{"key":"利播","name":"无界🌏利播影视","type":3,"api":"csp_Libvio","searchable":1,"quickSearch":1,"changeable":1,"ext":"https://www.libvio.pro/","jar":"https://raw.iqiq.io/w6566/tvlive/main/box/spider/fty.jar"},
{"key":"ymzy","name":"无界🌏华新影视","type":3,"api":"https://raw.iqiq.io/w6566/tvlive/main/box/js/drpy2.min.js","ext":"https://raw.iqiq.io/w6566/tvlive/main/box/js/hys.js"},
{"key":"网飞.TV","name":"无界🌏网飞影视","type":3,"api":"https://raw.iqiq.io/w6566/tvlive/main/box/js/drpy2.min.js","ext":"https://raw.iqiq.io/w6566/tvlive/main/box/js/网飞.TV.js"},
{"key":"荐片","name":"无界🌏荐片影视","type":3,"api":"https://raw.iqiq.io/w6566/tvlive/main/box/js/drpy2.min.js","searchable":1,"playerType":1,"quickSearch":1,"filterable":1,"ext":"https://raw.iqiq.io/w6566/tvlive/main/box/js/荐片.js"},
{"key":"三五","name":"无界🌏三五影视","type":3,"api":"https://raw.iqiq.io/w6566/tvlive/main/box/js/drpy2.min.js","searchable":1,"quickSearch":1,"filterable":1,"ext":"https://raw.iqiq.io/w6566/tvlive/main/box/js/555.js"},
{"key":"B站","name":"无界🌏B站影视","type":3,"api":"https://raw.iqiq.io/w6566/tvlive/main/box/js/drpy2.min.js","searchable":1,"quickSearch":1,"filterable":1,"ext":"https://raw.iqiq.io/w6566/tvlive/main/box/js/bzys.js"},
{"key":"农民","name":"无界🌏农民影视","type":3,"api":"https://raw.iqiq.io/w6566/tvlive/main/box/js/drpy2.min.js","searchable":1,"quickSearch":1,"filterable":1,"ext":"https://raw.iqiq.io/w6566/tvlive/main/box/js/nongmin.js","jar":"https://raw.iqiq.io/w6566/tvlive/main/box/spider/fty.jar"},
{"key":"骚火","name":"无界🌏骚火影视","type":3,"api":"https://raw.iqiq.io/w6566/tvlive/main/box/js/drpy2.min.js","searchable":1,"quickSearch":1,"filterable":1,"ext":"https://raw.iqiq.io/w6566/tvlive/main/box/js/saohuo.js"},
{"key":"电影先生","name":"无界🌏电影先生","type":3,"api":"https://raw.iqiq.io/w6566/tvlive/main/box/js/drpy2.min.js","searchable":1,"quickSearch":1,"filterable":1,"ext":"https://raw.iqiq.io/w6566/tvlive/main/box/js/电影先生.js"},
{"key":"鸭鸭","name":"无界🌏鸭鸭影视","type":3,"api":"csp_AppYsV2","searchable":1,"quickSearch":1,"ext":"https://yayayaaapp.ynf.icu/api.php/app/"},
{"key":"鑫鑫","name":"无界🌏鑫鑫影视","type":3,"api":"csp_AppYsV2","searchable":1,"quickSearch":1,"filterable":1,"ext":"http://yingszj.xn--654a.cc/api.php/app/"},
{"key":"益达","name":"无界🌏益达影视","type":3,"api":"csp_AppYsV2","searchable":1,"quickSearch":1,"filterable":1,"ext":"https://myd666.tv/lvdou_api.php/v1.vod"},
{"key":"六九","name":"无界🌏六九影视","type":3,"api":"csp_AppYsV2","searchable":1,"quickSearch":1,"filterable":1,"ext":"https://www.69mj.com/xgapp.php/v2/"},
{"key":"极狐","name":"无界🌏极狐影视","type":3,"api":"csp_AppYsV2","searchable":1,"quickSearch":1,"filterable":1,"ext":"https://www.kuin.one/api.php/app/"},
{"key":"奥特","name":"无界🌏奥特影视","type":3,"api":"csp_Auete","searchable":1,"quickSearch":1,"changeable":1,"ext":"https://haozhansou.com/","jar":"https://raw.iqiq.io/w6566/tvlive/main/box/spider/fty.jar"},
{"key":"比特","name":"无界🌏比特影视","type":3,"api":"csp_Bttwoo","searchable":1,"quickSearch":1,"changeable":1,"jar":"https://raw.iqiq.io/w6566/tvlive/main/box/spider/fty.jar"},
{"key":"九六","name":"无界🌏九六影视","type":3,"api":"csp_Cs1369","playerType":2,"searchable":1,"quickSearch":1,"changeable":1,"jar":"https://raw.iqiq.io/w6566/tvlive/main/box/spider/fty.jar"},
{"key":"快看","name":"无界🌏快看影视","type":3,"api":"csp_Kuaikan","searchable":1,"quickSearch":1,"filterable":1},
{"key":"七七","name":"无界🌏七七影视","type":3,"api":"csp_Kunyu77","searchable":1,"quickSearch":1,"changeable":1,"jar":"https://raw.iqiq.io/w6566/tvlive/main/box/spider/fty.jar"},
{"key":"毛驴","name":"无界🌏毛驴影视","type":3,"api":"csp_MLYS","searchable":1,"quickSearch":1,"changeable":1,"ext":"https://www.maolvys.com/","jar":"https://raw.iqiq.io/w6566/tvlive/main/box/spider/fty.jar"},
{"key":"三三","name":"无界🌏三三影视","type":3,"api":"csp_SP33","searchable":1,"quickSearch":1,"filterable":1,"changeable":0,"jar":"https://raw.iqiq.io/w6566/tvlive/main/box/spider/fty.jar"},
{"key":"七夕","name":"无界🌏七夕影视","type":3,"api":"csp_XBPQ","searchable":1,"quickSearch":1,"filterable":1,"ext":"https://raw.iqiq.io/w6566/tvlive/main/box/js/七夕影视.js"},
{"key":"五月","name":"无界🌏五月影视","type":3,"api":"csp_XBPQ","searchable":1,"quickSearch":1,"filterable":1,"ext":"https://raw.iqiq.io/w6566/tvlive/main/box/js/五月影视.js"},
{"key":"101","name":"无界🌏101影视","type":3,"api":"csp_XBPQ","searchable":1,"quickSearch":1,"filterable":1,"ext":"https://raw.iqiq.io/w6566/tvlive/main/box/json/101影视.json"},
{"key":"日后","name":"无界🌏348影视","type":3,"api":"csp_XBPQ","searchable":1,"quickSearch":1,"filterable":1,"ext":"https://raw.iqiq.io/w6566/tvlive/main/box/json/348影视.json"},
{"key":"Free","name":"无界🌏Free影视","type":3,"api":"csp_XBPQ","searchable":1,"quickSearch":1,"filterable":1,"ext":"https://raw.iqiq.io/w6566/tvlive/main/box/json/Free影视.json"},
{"key":"TVB","name":"无界🌏TVB云播","type":3,"api":"csp_XBPQ","searchable":1,"quickSearch":1,"filterable":1,"ext":"https://raw.iqiq.io/w6566/tvlive/main/box/json/TVB云播.json"},
{"key":"Voflix","name":"无界🌏Voflix","type":3,"api":"csp_XBPQ","searchable":1,"quickSearch":1,"filterable":1,"ext":"https://raw.iqiq.io/w6566/tvlive/main/box/json/voflix.json"},
{"key":"YYDS","name":"无界🌏YYDS影视","type":3,"api":"csp_XBPQ","searchable":1,"quickSearch":1,"filterable":1,"ext":"https://raw.iqiq.io/w6566/tvlive/main/box/json/YYDS影视.json"},
{"key":"子子影视","name":"无界🌏子子影视","type":3,"api":"csp_XBPQ","searchable":1,"quickSearch":1,"filterable":1,"ext":"https://raw.iqiq.io/w6566/tvlive/main/box/json/zizi.json"},
{"key":"爱看","name":"无界🌏爱看影视","type":3,"api":"csp_XBPQ","searchable":1,"quickSearch":1,"filterable":1,"ext":"https://raw.iqiq.io/w6566/tvlive/main/box/json/爱看影视.json"},
{"key":"蛋蛋","name":"无界🌏蛋蛋影视","type":3,"api":"csp_XBPQ","searchable":1,"quickSearch":1,"filterable":1,"ext":"https://raw.iqiq.io/w6566/tvlive/main/box/json/蛋蛋影视.json"},
{"key":"疯狗","name":"无界🌏疯狗影视","type":3,"api":"csp_XBPQ","searchable":1,"quickSearch":1,"filterable":1,"ext":"https://raw.iqiq.io/w6566/tvlive/main/box/json/疯狗影视.json"},
{"key":"好戏","name":"无界🌏好戏影视","type":3,"api":"csp_XBPQ","searchable":1,"quickSearch":1,"filterable":1,"ext":"https://raw.iqiq.io/w6566/tvlive/main/box/json/好戏影视.json"},
{"key":"黑狐","name":"无界🌏黑狐影视","type":3,"api":"csp_XBPQ","searchable":1,"quickSearch":1,"filterable":1,"ext":"https://raw.iqiq.io/w6566/tvlive/main/box/json/黑狐影视.json"},
{"key":"米爱","name":"无界🌏米爱影视","type":3,"api":"csp_XBPQ","searchable":1,"quickSearch":1,"filterable":1,"ext":"https://raw.iqiq.io/w6566/tvlive/main/box/json/米爱影视.json"},
{"key":"胖虎","name":"无界🌏胖虎影视","type":3,"api":"csp_XBPQ","searchable":1,"quickSearch":1,"filterable":1,"ext":"https://raw.iqiq.io/w6566/tvlive/main/box/json/胖虎.json"},
{"key":"苹果","name":"无界🌏苹果影视","type":3,"api":"csp_XBPQ","searchable":1,"quickSearch":1,"filterable":1,"ext":"https://raw.iqiq.io/w6566/tvlive/main/box/json/苹果影视.json"},
{"key":"七新","name":"无界🌏七新影视","type":3,"api":"csp_XBPQ","searchable":1,"quickSearch":1,"filterable":1,"ext":"https://raw.iqiq.io/w6566/tvlive/main/box/json/七新影视.json"},
{"key":"七月","name":"无界🌏七月影视","type":3,"api":"csp_XBPQ","searchable":1,"quickSearch":1,"filterable":1,"ext":"https://raw.iqiq.io/w6566/tvlive/main/box/json/七月影视.json"},
{"key":"奇优","name":"无界🌏奇优影视","type":3,"api":"csp_XBPQ","searchable":1,"quickSearch":1,"filterable":1,"ext":"https://raw.iqiq.io/w6566/tvlive/main/box/json/奇优影院.json"},
{"key":"圣城","name":"无界🌏圣城影视","type":3,"api":"csp_XBPQ","searchable":1,"quickSearch":1,"filterable":1,"ext":"https://raw.iqiq.io/w6566/tvlive/main/box/json/圣城影视.json"},
{"key":"土豪","name":"无界🌏土豪影视","type":3,"api":"csp_XBPQ","searchable":1,"quickSearch":1,"filterable":1,"ext":"https://raw.iqiq.io/w6566/tvlive/main/box/json/土豪影视.json"},
{"key":"万达","name":"无界🌏万达影视","type":3,"api":"csp_XBPQ","searchable":1,"quickSearch":1,"filterable":1,"ext":"https://raw.iqiq.io/w6566/tvlive/main/box/json/万达影视.json"},
{"key":"午舞","name":"无界🌏午舞影视","type":3,"api":"csp_XBPQ","searchable":1,"quickSearch":1,"filterable":1,"ext":"https://raw.iqiq.io/w6566/tvlive/main/box/json/五五影视.json"},
{"key":"星辰","name":"无界🌏星辰影视","type":3,"api":"csp_XBPQ","searchable":1,"quickSearch":1,"filterable":1,"ext":"https://raw.iqiq.io/w6566/tvlive/main/box/json/星辰影视.json"},
{"key":"不卡","name":"无界🌏不卡影视","type":3,"api":"csp_XBPQ","searchable":1,"quickSearch":1,"filterable":1,"ext":"https://raw.iqiq.io/w6566/tvlive/main/box/json/真不卡影视.json"},
{"key":"巧技一","name":"无界🌏巧技1","type":3,"api":"csp_qiao2","playerType":2,"ext":"https://jihulab.com/qiaoji/open/-/main/qiaoji1","jar":"https://raw.iqiq.io/w6566/tvlive/main/box/spider/fix24117.jar"},
{"key":"巧技二","name":"无界🌏巧技2","type":3,"api":"csp_qiao2","playerType":2,"ext":"https://jihulab.com/qiaoji/open/-/main/qiaoji2","jar":"https://raw.iqiq.io/w6566/tvlive/main/box/spider/fix24117.jar"},
{"key":"巧技三","name":"无界🌏巧技3","type":3,"api":"csp_qiao2","playerType":2,"ext":"https://jihulab.com/qiaoji/open/-/main/qiaoji3","jar":"https://raw.iqiq.io/w6566/tvlive/main/box/spider/fix24117.jar"},
{"key":"巧技四","name":"无界🌏巧技4","type":3,"api":"csp_qiao2","playerType":2,"ext":"https://jihulab.com/qiaoji/open/-/main/qiaoji4","jar":"https://raw.iqiq.io/w6566/tvlive/main/box/spider/fix24117.jar"},
{"key":"巧技五","name":"无界🌏巧技5","type":3,"api":"csp_qiao2","searchable":1,"quickSearch":1,"playerType":2,"filterable":1,"ext":"https://jihulab.com/qiaoji/open/-/main/qiaoji5","jar":"https://raw.iqiq.io/w6566/tvlive/main/box/spider/fix24117.jar"},
{"key":"视觉js","name":"无界🌏视觉影视js","type":3,"playerType":"2","api":"https://raw.iqiq.io/w6566/tvlive/main/box/js/drpy2.min.js","ext":"https://raw.iqiq.io/w6566/tvlive/main/box/js/新视觉.js"},
{"key":"视觉","name":"无界🌏视觉影视","type":3,"api":"csp_Xinsj","searchable":1,"quickSearch":1,"changeable":1,"ext":"https://www.hdmyy.com/","jar":"https://raw.iqiq.io/w6566/tvlive/main/box/spider/fty.jar"},
{"key":"达达龟","name":"无界🌏达龟影视","type":3,"api":"csp_XPathFilter","searchable":1,"quickSearch":1,"filterable":1,"ext":"https://raw.iqiq.io/w6566/tvlive/main/box/json/达达龟.json"},
{"key":"哔嘀","name":"无界🌏哔嘀影视","type":3,"api":"csp_XYQHiker","searchable":1,"quickSearch":1,"filterable":1,"ext":"https://raw.iqiq.io/w6566/tvlive/main/box/json/哔嘀影视.json","jar":"https://raw.iqiq.io/w6566/tvlive/main/box/spider/xyq.jar"},
{"key":"一起看","name":"无界🌏一起看片","type":3,"api":"csp_YQKan","searchable":1,"quickSearch":1,"changeable":1,"jar":"https://raw.iqiq.io/w6566/tvlive/main/box/spider/fty.jar"},
{"key":"在线","name":"无界🌏在线影视","type":3,"api":"csp_Zxzj","searchable":1,"quickSearch":1,"changeable":1,"ext":"https://www.zxzj.pro/","jar":"https://raw.iqiq.io/w6566/tvlive/main/box/spider/fty.jar"},
{"key":"暴风","name":"无界🌏暴风影视","type":1,"api":"https://bfzyapi.com/api.php/provide/vod/?ac=list","playUrl":"","categories":["国产剧","国产动漫","大陆综艺","港台综艺","香港剧","台湾剧","日本剧","欧美剧","泰国剧","日本动漫","日本综艺","综艺频道","新马泰综艺","纪录片","科幻片","喜剧片","战争片"]},
{"key":"快车资源","name":"无界🌏快车影视","type":1,"api":"https://caiji.kczyapi.com/api.php/provide/vod/","searchable":1,"quickSearch":1,"categories":["国产剧","战争片","动作片","香港剧"]},
{"key":"金鹰资源","name":"无界🌏金鹰影视","type":1,"api":"https://jyzyapi.com/provide/vod/","playUrl":"","searchable":1,"quickSearch":1},
{"key":"速博资源","name":"无界🌏速播影视","type":1,"api":"https://subocaiji.com/api.php/provide/vod/","playUrl":"","searchable":1,"quickSearch":1},
{"key":"贱贱","name":"无界🌏贱贱影视","type":3,"searchable":1,"quickSearch":1,"changeable":1,"playerType":"1","api":"https://raw.iqiq.io/w6566/tvlive/main/box/js/drpy2.min.js","ext":"https://raw.iqiq.io/w6566/tvlive/main/box/js/jp.js"},
{"key":"索尼","name":"无界🌏索尼影视","type":1,"api":"https://suoniapi.com/api.php/provide/vod/?ac=list","searchable":1,"quickSearch":1,"filterable":1,"categories":["动作片","喜剧片","科幻片","恐怖片","爱情片","剧情片","战争片","记录片","国产剧","欧美剧","香港剧","韩国剧","台湾剧","日本剧","海外剧","泰国剧","国产动漫","日韩动漫","欧美动漫","港台动漫","海外动漫","大陆综艺","港台综艺","日韩综艺","欧美综艺"]},
{"key":"非凡1","name":"无界🌏非凡影视1","type":3,"api":"csp_XBPQ","searchable":1,"quickSearch":1,"filterable":1,"ext":"https://raw.iqiq.io/w6566/tvlive/main/box/json/非凡资源网.json"},
{"key":"非凡2","name":"无界🌏非凡影视2","type":1,"api":"http://ffzy1.tv/api.php/provide/vod/","playurl":"json:http://jx.84jia.com/m3u8ts.php?url=","searchable":1,"quickSearch":1,"filterable":1,"categories":["动作片","喜剧片","科幻片","恐怖片","爱情片","剧情片","战争片","记录片","国产剧","欧美剧","香港剧","韩国剧","台湾剧","日本剧","海外剧","泰国剧","国产动漫","日韩动漫","欧美动漫","港台动漫","海外动漫","大陆综艺","港台综艺","日韩综艺","欧美综艺"]},
{"key":"量子","name":"无界🌏量子影视","type":1,"api":"http://cj.lziapi.com/api.php/provide/vod/","playurl":"json:http://jx.84jia.com/m3u8ts.php?url=","searchable":1,"quickSearch":1,"filterable":0,"categories":["国产剧","国产动漫","泰国剧","台湾剧","香港剧","欧美剧","韩国剧","日本剧","动漫","体育","剧情片","动作片","爱情片","喜剧片"]},
{"key":"蜂鸟","name":"无界🌏蜂鸟影视","type":3,"api":"csp_AppSK","searchable":1,"quickSearch":1,"changeable":1,"ext":"FbjPcVZY48PN/RIZ5QqOrsp7JoZYCZdLEy9R9ri6ykNdUNSIsT3IgxCP9qyzByO7ZG6Z030vgWoyXGNlCJx9KFpYXtyZ3B/cLTtO0SAclaw3AOm0fS9oLx2taGF6hg==","jar":"https://raw.iqiq.io/w6566/tvlive/main/box/spider/fty.jar"},
{"key":"49资源","name":"无界🌏四九影视1","type":1,"api":"https://49zy1.com/api.php/provide/vod/?ac=list","searchable":1,"quickSearch":1,"filterable":1,"categories":["国产剧","纪录片","欧美剧","香港剧","动作片","爱情片","科幻片","恐怖片","剧情片","战争片","喜剧片","动画片","犯罪片","韩国剧","动漫","电影","大陆综艺","港台综艺","日韩综艺","欧美综艺","台湾剧","国产动漫","日本动漫","欧美动漫","泰国剧","日剧","电影解说","奇幻片","灾难片","悬疑片","其他片","体育赛事","海外剧"]},
{"key":"49zy","name":"无界🌏四九影视2","type":1,"api":"https://49zyw.com/api.php/provide/vod/?ac=list","searchable":1,"quickSearch":1,"filterable":1,"changeable":1,"categories":["国产剧","纪录片","欧美剧","香港剧","动作片","爱情片","科幻片","恐怖片","剧情片","战争片","喜剧片","动画片","犯罪片","韩国剧","动漫","电影","大陆综艺","港台综艺","日韩综艺","欧美综艺","台湾剧","国产动漫","日本动漫","欧美动漫","泰国剧","日剧","电影解说","奇幻片","灾难片","悬疑片","其他片","体育赛事","海外剧"]},
{"key":"xml_火狐","name":"无界🌏火狐影视","type":1,"style":{"type":"rect","ratio":0.8},"api":"https://hhzyapi.com/api.php/provide/vod/?ac=list","searchable":1,"quickSearch":0,"filterable":1,"categories":["动作片","喜剧片","爱情片","科幻片","恐怖片","剧情片","战争片","悬疑片","犯罪片","奇幻片","记录片","动画片","内地剧","香港剧","台湾剧","日剧","韩剧","欧美剧","马泰剧","大陆综艺","港台综艺","日韩综艺","欧美综艺","中国动漫","日本动漫","欧美动漫"]},
{"key":"南坊","name":"无界🌏南坊影视","type":3,"api":"csp_AppMao","searchable":1,"quickSearch":1,"changeable":1,"ext": "FbjCcU1KqpC5pkRX4Q3D+NciPclIFs4EHzRV89m3pENRS6PivxPrlXvH/4efUSWwUCWwwk8srkIDSXN9RIJkSCZPJqnRikLRakBH0XBB6uNlX6XgMjhUKBTbBXopnsWdvXX6OowIBLQ78wghs3yRbgJxOYvrglBVIeI4cTcDGxixtMJ+yL0zE9g1d+N2RH4JERZh3CoYXSO1hH420ARbjt08lerroREmfGoT8JEGfTFW3MrK3hWueIyRsyOllsj/P87VXSxEVLnwNm4fos8lCFL74+azvs61n89svqg=","jar":"https://raw.iqiq.io/w6566/tvlive/main/box/spider/fty.jar"},
{"key":"嘿嘿","name":"无界🌏嘿嘿影视","type":3,"api":"csp_AppMao","searchable":1,"quickSearch":1,"changeable":1,"ext":"FbjDcUxPqpfNr0QF4QvE6sExbcBEGIRZVnQTs7Kyyk1SScOZ8j/C1ATO/eqjASKwdHWA2zQtjGMwVDA+Ttluew9LCZzZnFyFNWEAlX0KjLdiSaX+NDNVdVG1JjEvnt3n7STfbcZ8C5QA+hYk60bwQH58e7eO7msRAJ0ZbmFDDly40NBDxuYsAq8lZuJzVkw0ZkMhqBM9YRPP8mMU/CJYsuBptunppHVQfFQjk8wxXjVRsNe75CuoY+zt9w+Smcm9PL37bGJHS6+1cFg1xMgqVxqvyPfuq5Dvyo1q66Q1NXwhDe4x21KVg4iRMET6Z3Jna25wcmku6xbznbFxlZqH3DqtpBKXLcNrx6n6vgn+/lHRmp5g13bG1xc/jwO78tZL0Pei6A==","jar":"https://raw.iqiq.io/w6566/tvlive/main/box/spider/fty.jar"},
{"key":"繁星","name":"无界🌏繁星影视","type":3,"api":"csp_AppMao","playerType":2,"searchable":1,"quickSearch":1,"changeable":1,"ext":"FbjDcUxPqpfNr0QF4QvE6sExbd4UXJxJXzdL462ywU1XScGa5G6Hj0/c+Ou1GW6rdX6N2XIhnD46QzIsRoZ8bk4fG4OYi0iCaWwRj2ddkacwFqHtLjQhalHqIy0+kpiTv2eOfJYxTshgrxcJ+g3lEHx7ZLC9kB1TCfZUSHwqHB3tt6V/1OhRENIOZNRFfXVBEFd7jQg+J06kjCAF7z1Bt8hRvMjC2VcbQXsEz8MCZDgu06C9/wirWcTa/wWJsfT+Z7fXaDs+dIWMYiwf6td5CWTx6LfL6eTuiMhs2KU5Byw9F+4Y/AHBg4r+LEe+Hm4EM2d8X3ca5zHSj+kjmpXOiGDo4TalFqgTq67eggmthCbV2d131SKc03V+5gruudQQk/Tb9e4lg6SQhA9/5kWOOM/LRmkqIxSt6d0wpu7yKKh65enwKbgasc93/HnGr6W4LuZjf6eYnS2GgRzWRE0fT5lYNmxnWeRnYuLhoZbDqslAfJzg","jar":"https://raw.iqiq.io/w6566/tvlive/main/box/spider/fty.jar"},
{"key":"宅腐APP","name":"无界🌏腐宅百合","type":3,"api":"csp_AppYsV2","searchable":1,"quickSearch":1,"filterable":1,"ext":"http://app.zhaifutvapp.com/ruifenglb_api.php/v1.vod"},
//采集磁力网盘
{"key":"飞速","name":"无界🌏飞速采集","type":1,"api":"https://www.feisuzyapi.com/api.php/provide/vod/?ac=list","searchable":1,"filterable":0,"categories":["国产动漫","日本动漫","欧美动漫","海外动漫","大陆综艺","港台综艺","日韩综艺","欧美综艺","动作片","喜剧片","爱情片","科幻片","恐怖片","剧情片","战争片","国产剧","香港剧","欧美剧","韩国剧","台湾剧","日本剧","泰国剧","纪录片","动画片","电影解说","其他片","其他剧","体育赛事","短剧"]},
{"key":"奇虎","name":"无界🌏奇虎采集","type":1,"api":"https://caiji.qhzyapi.com/api.php/provide/vod/","playUrl":"","searchable":1,"quickSearch":1,"categories":["动作片","喜剧片","爱情片","科幻片","恐怖片","战争片","剧情片","伦理片","纪录片","国产剧","香港剧","韩国剧","欧美剧","日本剧","台湾剧","泰国剧","海外剧","国产动漫","日本动漫","欧美动漫","大陆综艺","港台综艺","欧美综艺","日韩综艺","动画片","体育","短剧","网络电影"]},
{"key":"淘片","name":"无界🌏淘片采集","type":1,"api":"https://taopianapi.com/cjapi/mc/vod/json.html","searchable":1,"filterable":0,"categories":["动漫/国产动漫","动漫/日本动漫","动漫/欧美动漫","动漫/海外动漫","综艺/大陆综艺","综艺/港台综艺","综艺/日韩综艺","综艺/欧美综艺","综艺/海外综艺","电视剧/国产剧","电视剧/香港剧","电视剧/欧美剧","电视剧/海外剧","电视剧/韩国剧","电视剧/日本剧","电视剧/泰国剧","电视剧/台湾剧","电影/战争片","电影/科幻片","电影/奇幻片","电影/冒险片","电影/动画片","电影/喜剧片","电影/动作片","电影/爱情片","电影/恐怖片","电影/惊悚片","电影/剧情片","电影/悬疑片","电影/纪录片"]},
{"key":"可可","name":"无界🌏可可采集","type":1,"api":"https://kekezy1.com/api.php/provide/vod/?ac=list","playUrl":"","searchable":1,"quickSearch":1,"categories":["动作片","喜剧片","爱情片","科幻片","恐怖片","战争片","剧情片","国产剧","香港剧","韩国剧","欧美剧","日本剧","台湾剧","泰国剧","海外剧","国产动漫","日本动漫","欧美动漫","大陆综艺","港台综艺","日韩综艺"]},
{"key":"百度","name":"无界🌏百度采集","type":1,"api":"https://api.apibdzy.com/api.php/provide/vod/?ac=list","searchable":1,"filterable":0},
{"key":"PanS","name":"无界🌏阿里PanS","type":3,"api":"csp_PanSearch","searchable":1,"quickSearch":1,"changeable":0,"ext":"http://127.0.0.1:9978/file/tvbox/token.txt+4k|auto|fhd"},
{"key":"盘搜","name":"无界🌏阿里盘搜","type":3,"api":"csp_PanSou","searchable":1,"quickSearch":1,"changeable":0,"ext":"http://127.0.0.1:9978/file/tvbox/token.txt+4k|auto|fhd"},
{"key":"云搜","name":"无界🌏阿里云搜","type":3,"api":"csp_UpYun","searchable":1,"quickSearch":1,"changeable":0,"ext":"http://127.0.0.1:9978/file/tvbox/token.txt+4k|auto|fhd"},
{"key":"易搜1","name":"无界🌏易搜搜索","type":3,"api":"csp_YiSo","searchable":1,"quickSearch":1,"changeable":0,"ext":"http://127.0.0.1:9978/file/tvbox/token.txt+4k|auto|fhd"},
{"key":"易搜2","name":"无界🌏阿里易搜","type":3,"api":"csp_YiSou","searchable":1,"quickSearch":1,"filterable":0,"ext":"http://127.0.0.1:9978/file/tvbox/token.txt+4k|fhd|auto","jar":"https://raw.iqiq.io/w6566/tvlive/main/box/spider/xyq.jar"},
{"key":"七夜","name":"无界🌏阿里七夜","type":3,"api":"csp_Dovx","searchable":1,"quickSearch":1,"changeable":0,"ext":"http://127.0.0.1:9978/file/tvbox/token.txt+4k|auto|fhd"},
{"key":"酷吧","name":"无界🌏酷吧磁力","type":3,"api":"https://raw.iqiq.io/w6566/tvlive/main/box/js/drpy2.min.js","searchable":1,"quickSearch":1,"filterable":1,"ext":"https://raw.iqiq.io/w6566/tvlive/main/box/js/kuba.js"},
{"key":"新6V","name":"无界🌏6V磁力1","type":3,"api":"csp_SixV","searchable":1,"quickSearch":1,"changeable":0,"ext":"http://www.xb6v.com/"},
{"key":"6V","name":"无界🌏6V磁力2","type":3,"api":"https://raw.iqiq.io/w6566/tvlive/main/box/js/drpy2.min.js","searchable":1,"quickSearch":1,"filterable":1,"ext":"https://raw.iqiq.io/w6566/tvlive/main/box/js/6V.js"},
{"key":"贝尔","name":"无界🌏贝尔磁力","type":3,"api":"https://raw.iqiq.io/w6566/tvlive/main/box/js/drpy2.min.js","searchable":1,"quickSearch":1,"filterable":1,"ext":"https://raw.iqiq.io/w6566/tvlive/main/box/js/bear.js"},
//体育
{"key":"88js","name":"无界🌏在线看球","type":3,"api":"csp_Kanqiu","style":{"type":"list"},"searchable":0,"quickSearch":0,"changeable":0,"jar":"https://raw.iqiq.io/w6566/tvlive/main/box/spider/fty.jar"},
{"key":"Jrs","name":"无界🌏Jrs球迷","type":3,"api":"https://raw.iqiq.io/w6566/tvlive/main/box/js/drpy2.min.js","ext":"https://raw.iqiq.io/w6566/tvlive/main/box/js/jrk.js","style":{"type":"list"},"searchable":0,"quickSearch":0,"changeable":0},
{"key":"310","name":"无界🌏310看球","type":3,"api":"https://raw.iqiq.io/w6566/tvlive/main/box/js/drpy2.min.js","ext":"https://raw.iqiq.io/w6566/tvlive/main/box/js/310直播.js","style":{"type":"list"},"searchable":0,"quickSearch":0,"changeable":0},
{"key":"企鹅体育","name":"无界🌏企鹅体育js","type":3,"api":"csp_XPath","style":{"type":"list"},"searchable":0,"quickSearch":0,"changeable":0,"ext":"https://raw.iqiq.io/w6566/tvlive/main/box/json/企鹅直播.json"},
{"key":"企鹅体育py","name":"无界🌏企鹅体育py","type":3,"api":"py_qie","searchable":0,"quickSearch":0,"filterable":1,"ext":"https://raw.iqiq.io/w6566/tvlive/main/box/py/qie.py"},
{"key":"球队球星","name":"无界🌏球队球星","type":3,"api":"csp_Bili","searchable":0,"quickSearch":0,"filterable":1,"ext":"https://raw.iqiq.io/w6566/tvlive/main/box/json/qiudui.json","jar":"https://raw.iqiq.io/w6566/tvlive/main/box/spider/fty.jar"},
{"key":"体育健身","name":"无界🌏体育健身","type":3,"api":"csp_Bili","searchable":0,"quickSearch":0,"filterable":1,"ext":"https://raw.iqiq.io/w6566/tvlive/main/box/json/tiyu.json","jar":"https://raw.iqiq.io/w6566/tvlive/main/box/spider/fty.jar"},
//戏曲综艺
{"key":"央视经典","name":"无界🌏央视经典","type":3,"api":"csp_Bili","searchable":0,"quickSearch":1,"filterable":1,"ext":"https://raw.iqiq.io/w6566/tvlive/main/box/json/哔哩经典.json","jar":"https://raw.iqiq.io/w6566/tvlive/main/box/spider/fty.jar"},
{"key":"央视大全py","name":"无界🌏央视大全py","type":3,"api":"py_cctv","searchable":0,"quickSearch":0,"filterable":1,"ext":"https://raw.iqiq.io/w6566/tvlive/main/box/py/cctv.py"},
{"key":"央视大全js","name":"无界🌏央视大全js","type":3,"api":"csp_CCTV","searchable":0,"filterable":0,"ext":"https://raw.iqiq.io/w6566/tvlive/main/box/json/央视大全.json","jar":"https://raw.iqiq.io/w6566/tvlive/main/box/spider/hccx.jar"},
{"key":"相声小品","name":"无界🌏相声小品","type":3,"api":"csp_Bili","searchable":0,"quickSearch":0,"filterable":1,"ext":"https://raw.iqiq.io/w6566/tvlive/main/box/json/xiaopin.json","jar":"https://raw.iqiq.io/w6566/tvlive/main/box/spider/fty.jar"},
{"key":"戏曲合集","name":"无界🌏戏曲合集","type":3,"api":"csp_Bili","searchable":0,"quickSearch":0,"filterable":1,"ext":"https://raw.iqiq.io/w6566/tvlive/main/box/json/xiqu.json","jar":"https://raw.iqiq.io/w6566/tvlive/main/box/spider/fty.jar"},
//歌曲mv
{"key":"哔哩合集","name":"无界🌏哔哩合集","type":3,"api":"csp_Bili","style":{"type":"rect","ratio":1.597},"searchable":1,"quickSearch":0,"changeable":0,"ext":"https://raw.iqiq.io/w6566/tvlive/main/box/json/bilibili.json","jar":"https://raw.iqiq.io/w6566/tvlive/main/box/spider/fty.jar"},
{"key":"歌手合集","name":"无界🌏歌手合集","type":3,"api":"csp_Bili","searchable":0,"quickSearch":0,"filterable":1,"ext":"https://raw.iqiq.io/w6566/tvlive/main/box/json/geshou.json","jar":"https://raw.iqiq.io/w6566/tvlive/main/box/spider/fty.jar"},
{"key":"音悦合集","name":"无界🌏音悦合集","type":3,"api":"csp_Bili","searchable":0,"quickSearch":0,"filterable":1,"ext":"https://raw.iqiq.io/w6566/tvlive/main/box/json/yinyue.json","jar":"https://raw.iqiq.io/w6566/tvlive/main/box/spider/fty.jar"},
{"key":"酷奇音乐","name":"无界🌏酷奇音乐","type":3,"api":"csp_XBPQ","searchable":0,"quickSearch":0,"filterable":0,"ext":"https://raw.iqiq.io/w6566/tvlive/main/box/json/酷奇MV.json"},
{"key":"哔哩歌曲","name":"无界🌏哔哩歌曲","type":3,"api":"csp_Bili","style":{"type":"rect","ratio":1.597},"searchable":1,"quickSearch":0,"changeable":0,"ext":"https://raw.iqiq.io/w6566/tvlive/main/box/json/biliych.json","jar":"https://raw.iqiq.io/w6566/tvlive/main/box/spider/fty.jar"},
{"key":"奥迪音乐","name":"无界🌏奥迪音乐","type":3,"api":"https://raw.iqiq.io/w6566/tvlive/main/box/js/drpy2.min.js","searchable":1,"quickSearch":1,"filterable":1,"ext":"https://raw.iqiq.io/w6566/tvlive/main/box/js/a8音乐.js"},
{"key":"歌曲演唱","name":"无界🌏歌曲演唱","type":3,"api":"csp_Bili","searchable":0,"quickSearch":0,"filterable":1,"ext":"https://raw.iqiq.io/w6566/tvlive/main/box/json/mtv.json","jar":"https://raw.iqiq.io/w6566/tvlive/main/box/spider/fty.jar"},
{"key":"美女舞蹈","name":"无界🌏美女舞蹈","type":3,"api":"csp_Bili","searchable":0,"quickSearch":0,"filterable":1,"ext":"https://raw.iqiq.io/w6566/tvlive/main/box/json/meinv.json","jar":"https://raw.iqiq.io/w6566/tvlive/main/box/spider/fty.jar"},
{"key":"美女热舞","name":"无界🌏女团热舞","type":3,"api":"csp_Bili","searchable":0,"quickSearch":0,"filterable":1,"ext":"https://raw.iqiq.io/w6566/tvlive/main/box/json/nvtuan.json","jar":"https://raw.iqiq.io/w6566/tvlive/main/box/spider/fty.jar"},
{"key":"酷奇mv","name":"无界🌏酷奇MV","type":3,"api":"https://raw.iqiq.io/w6566/tvlive/main/box/js/drpy2.min.js","ext":"https://raw.iqiq.io/w6566/tvlive/main/box/js/酷奇MV.js","style":{"type":"rect","ratio":1.597},"searchable":0,"quickSearch":0,"changeable":0},
{"key":"哔哩精简","name":"无界🌏哔哩精简","type":3,"api":"https://raw.iqiq.io/w6566/tvlive/main/box/js/drpy2.min.js","searchable":0,"quickSearch":0,"filterable":1,"ext":"https://raw.iqiq.io/w6566/tvlive/main/box/js/B站精简.js"},
//直播短视频
{"key":"斗鱼直播","name":"无界🌏斗鱼直播","type":3,"api":"https://raw.iqiq.io/w6566/tvlive/main/box/js/drpy2.min.js","ext":"https://raw.iqiq.io/w6566/tvlive/main/box/js/斗鱼直播.js","style":{"type":"list"},"searchable":0,"quickSearch":0,"changeable":0},
{"key":"虎牙直播","name":"无界🌏虎牙直播","type":3,"api":"https://raw.iqiq.io/w6566/tvlive/main/box/js/drpy2.min.js","ext":"https://raw.iqiq.io/w6566/tvlive/main/box/js/虎牙直播.js","style":{"type":"rect","ratio":1.755},"searchable":0,"quickSearch":0,"changeable":0},
{"key":"哔哩直播","name":"无界🌏哔哩直播","type":3,"api":"https://raw.iqiq.io/w6566/tvlive/main/box/js/drpy2.min.js","searchable":0,"quickSearch":0,"filterable":0,"ext":"https://raw.iqiq.io/w6566/tvlive/main/box/js/哔哩直播.js"},
{"key":"格斗直播","name":"无界🌏格斗直播","type":3,"api":"https://raw.iqiq.io/w6566/tvlive/main/box/js/drpy2.min.js","searchable":1,"quickSearch":1,"filterable":0,"ext":"https://raw.iqiq.io/w6566/tvlive/main/box/js/武享吧.js"},
{"key":"网红直播","name":"无界🌏网红直播","type":3,"api":"csp_Yj1211","searchable":1,"quickSearch":1,"changeable":1,"jar":"https://raw.iqiq.io/w6566/tvlive/main/box/spider/fty.jar"},
{"key":"JustLive","name":"无界🌏JustLive","type":3,"api":"csp_JustLive","searchable":1,"changeable":0,"jar":"https://raw.iqiq.io/w6566/tvlive/main/box/spider/custom_spider.jar"},
{"key":"短视频","name":"无界🌏短视频1","type":3,"api":"csp_XBPQ","searchable":0,"quickSearch":0,"filterable":0,"ext":"https://raw.iqiq.io/w6566/tvlive/main/box/json/短视频聚合.json"},
{"key":"短视频","name":"无界🌏短视频2","type":3,"api":"csp_XBPQ","searchable":0,"quickSearch":0,"filterable":1,"ext":"https://raw.iqiq.io/w6566/tvlive/main/box/json/duanshipin.json"},
{"key":"聚短视频","name":"无界🌏聚短视频","type":3,"api":"https://raw.iqiq.io/w6566/tvlive/main/box/js/drpy2.min.js","ext":"https://raw.iqiq.io/w6566/tvlive/main/box/js/短视频.js","searchable":0,"quickSearch":0,"changeable":0},
{"key":"嗷嗷","name":"无界🌏嗷嗷短剧","type":3,"api":"csp_XBPQ","searchable":1,"quickSearch":1,"filterable":1,"ext":{"分类url":"https://aoao.tv/vodshow/{cateId}--------{catePg}---.html","分类":"短剧$20#电视剧$21#电影$22#动漫$23#综艺$24"}},
{"key":"VSY","name":"无界🌏VSY短剧","type":3,"api":"csp_XYQHiker","searchable":1,"quickSearch":1,"filterable":1,"ext":"https://raw.iqiq.io/w6566/tvlive/main/box/json/VS影院.json","jar":"https://raw.iqiq.io/w6566/tvlive/main/box/spider/xyq.jar"},
{"key":"刷刷","name":"无界🌏刷刷短剧1","type":3,"api":"csp_XBPQ","searchable":0,"quickSearch":0,"filterable":1,"ext":"https://raw.iqiq.io/w6566/tvlive/main/box/json/短剧网.json"},
{"key":"刷刷","name":"无界🌏刷刷短剧2","type":3,"api":"https://raw.iqiq.io/w6566/tvlive/main/box/js/drpy2.min.js","searchable":1,"quickSearch":1,"filterable":1,"ext":"https://raw.iqiq.io/w6566/tvlive/main/box/js/短剧网.js"},
{"key":"XBPQ_葡萄","name":"无界🌏葡萄短剧","type":3,"api":"csp_XBPQ","ext":{"数组":"class=\"stui-vodlist__box&&</li","分类url":"https://www.putaojuchang.com/show/{cateId}/area/{area}/class/{class}/by/{by}/page/{catePg}/year/{year}.html","分类":"微剧场$1#言情$6#逆袭$7#战神$8#异能$9#生活$10#重生$12#复仇$20#爱情$11"}},
{"key":"有声小说","name":"无界🌏有声小说","type":3,"api":"https://raw.iqiq.io/w6566/tvlive/main/box/js/drpy2.min.js","ext":"https://raw.iqiq.io/w6566/tvlive/main/box/js/有声小说吧.js","style":{"type":"rect","ratio":1},"searchable":0,"quickSearch":0,"changeable":0},
//动漫
{"key":"动漫巴士","name":"无界🌏动漫巴士","type":3,"api":"csp_Dm84","searchable":1,"quickSearch":1,"changeable":1},
{"key":"樱花动漫","name":"无界🌏樱花动漫","type":3,"api":"csp_Ying","searchable":1,"quickSearch":1,"changeable":1},
{"key":"异界动漫","name":"无界🌏异界动漫","type":3,"api":"csp_Ysj","searchable":1,"quickSearch":1,"changeable":1},
{"key":"日本动漫","name":"无界🌏日本动漫","type":3,"api":"csp_Anime1","searchable":1,"quickSearch":1,"changeable":1},
{"key":"维奇动漫","name":"无界🌏维奇动漫","type":3,"api":"csp_XBPQ","searchable":0,"quickSearch":0,"filterable":1,"ext":"https://raw.iqiq.io/w6566/tvlive/main/box/json/维奇动漫.json"},
//教育科普
{"key":"美食","name":"无界🌏美食合集","type":3,"api":"csp_Bili","searchable":0,"quickSearch":0,"filterable":1,"ext":"https://raw.iqiq.io/w6566/tvlive/main/box/json/美食合集.json","jar":"https://raw.iqiq.io/w6566/tvlive/main/box/spider/fty.jar"},
{"key":"搭配","name":"无界🌏搭配教程","type":3,"api":"csp_Bili","searchable":0,"quickSearch":0,"filterable":1,"ext":"https://raw.iqiq.io/w6566/tvlive/main/box/json/搭配.json","jar":"https://raw.iqiq.io/w6566/tvlive/main/box/spider/fty.jar"},
{"key":"搭讪","name":"无界🌏搭讪教程","type":3,"api":"csp_Bili","searchable":0,"quickSearch":0,"filterable":1,"ext":"https://raw.iqiq.io/w6566/tvlive/main/box/json/搭讪.json","jar":"https://raw.iqiq.io/w6566/tvlive/main/box/spider/fty.jar"},
{"key":"中医药区","name":"无界🌏中医药区","type":3,"api":"csp_Bili","searchable":0,"quickSearch":0,"filterable":1,"ext":"https://raw.iqiq.io/w6566/tvlive/main/box/json/zyy.json","jar":"https://raw.iqiq.io/w6566/tvlive/main/box/spider/fty.jar"},
{"key":"急救教学","name":"无界🌏急救教学","type":3,"api":"csp_FirstAid","searchable":0,"quickSearch":0,"changeable":0,"style":{"type":"rect","ratio":3.8},"jar":"https://raw.iqiq.io/w6566/tvlive/main/box/spider/fty.jar"},
{"key":"小灯塔科学","name":"无界🌏灯塔科学","type":3,"api":"csp_Bili","searchable":0,"quickSearch":1,"filterable":1,"ext":"https://raw.iqiq.io/w6566/tvlive/main/box/json/小灯塔科学.json","jar":"https://raw.iqiq.io/w6566/tvlive/main/box/spider/fty.jar"},
{"key":"小灯塔地理","name":"无界🌏灯塔地理","type":3,"api":"csp_Bili","searchable":0,"quickSearch":1,"filterable":1,"ext":"https://raw.iqiq.io/w6566/tvlive/main/box/json/小灯塔地理.json","jar":"https://raw.iqiq.io/w6566/tvlive/main/box/spider/fty.jar"},
{"key":"小灯塔百科","name":"无界🌏灯塔百科","type":3,"api":"csp_Bili","searchable":0,"quickSearch":1,"filterable":1,"ext":"https://raw.iqiq.io/w6566/tvlive/main/box/json/小灯塔百科.json","jar":"https://raw.iqiq.io/w6566/tvlive/main/box/spider/fty.jar"},
{"key":"小灯塔国学","name":"无界🌏灯塔国学","type":3,"api":"csp_Bili","searchable":0,"quickSearch":1,"filterable":1,"ext":"https://raw.iqiq.io/w6566/tvlive/main/box/json/小灯塔国学.json","jar":"https://raw.iqiq.io/w6566/tvlive/main/box/spider/fty.jar"},
{"key":"童趣","name":"无界🌏童趣播视","type":3,"api":"https://raw.iqiq.io/w6566/tvlive/main/box/js/drpy2.min.js","searchable":1,"quickSearch":1,"filterable":1,"ext":"https://raw.iqiq.io/w6566/tvlive/main/box/js/童趣.js"},
{"key":"儿童启蒙","name":"无界🌏儿童启蒙","type":3,"api":"https://raw.iqiq.io/w6566/tvlive/main/box/js/drpy2.min.js","ext":"https://raw.iqiq.io/w6566/tvlive/main/box/js/兔小贝.js","style":{"type":"rect","ratio":1.597},"searchable":0,"quickSearch":0,"changeable":0},
{"key":"幼儿教育","name":"无界🌏幼儿教育","type":3,"api":"csp_Bili","searchable":0,"quickSearch":0,"filterable":1,"ext":"https://raw.iqiq.io/w6566/tvlive/main/box/json/youer.json","jar":"https://raw.iqiq.io/w6566/tvlive/main/box/spider/fty.jar"},
{"key":"少儿教育","name":"无界🌏少儿教育","type":3,"api":"csp_Bili","style":{"type":"rect","ratio":1.597},"searchable":0,"quickSearch":0,"changeable":0,"ext":"https://raw.iqiq.io/w6566/tvlive/main/box/json/少儿教育.json","jar":"https://raw.iqiq.io/w6566/tvlive/main/box/spider/fty.jar"},
{"key":"小学课堂","name":"无界🌏小学课堂","type":3,"api":"csp_Bili","style":{"type":"rect","ratio":1.597},"searchable":0,"quickSearch":0,"changeable":0,"ext":"https://raw.iqiq.io/w6566/tvlive/main/box/json/小学课堂.json","jar":"https://raw.iqiq.io/w6566/tvlive/main/box/spider/fty.jar"},
{"key":"初中课堂","name":"无界🌏初中课堂","type":3,"api":"csp_Bili","style":{"type":"rect","ratio":1.597},"searchable":0,"quickSearch":0,"changeable":0,"ext":"https://raw.iqiq.io/w6566/tvlive/main/box/json/初中课堂.json","jar":"https://raw.iqiq.io/w6566/tvlive/main/box/spider/fty.jar"},
{"key":"高中教育","name":"无界🌏高中课堂","type":3,"api":"csp_Bili","style":{"type":"rect","ratio":1.597},"searchable":0,"quickSearch":0,"changeable":0,"ext":"https://raw.iqiq.io/w6566/tvlive/main/box/json/高中课堂.json","jar":"https://raw.iqiq.io/w6566/tvlive/main/box/spider/fty.jar"},
{"key":"text3","name":"请勿相信视频中的任何广告","type":3,"api":"csp_Jable","searchable":1,"quickSearch":1,"changeable":1},
{"key":"手机推送","name":"Sina微博@·王健·","type":3,"api":"csp_Push","searchable":0,"quickSearch":0,"ext":"http://127.0.0.1:9978/file/tvbox/token.txt+4k|auto|fhd"},
{"key":"西瓜","name":"无界发布页http://www.cwss.xyz","type":3,"playerType":2,"api":"csp_AppYsV2","searchable":1,"quickSearch":1,"filterable":1,"ext":"https://www.gsjtlxy.top/xgapp.php/v3/"},
{"key":"特工","name":"QQ群48481548","type":3,"api":"https://raw.iqiq.io/w6566/tvlive/main/box/js/drpy2.min.js","searchable":1,"quickSearch":1,"filterable":1,"ext":"https://raw.iqiq.io/w6566/tvlive/main/box/js/007.js"}



],


"parses":[
    
{"name":"聚合","type":3,"url":"Demo"},
{"name":"Sina微博@·王健·","type":1,"url":"http://api.888484.xyz/神秘哥哥/super.php?v=","ext":{"flag":["qq","腾讯","qiyi","爱奇艺","奇艺","youku","优酷","tucheng","sohu","搜狐","letv","乐视","mgtv","芒果","tnmb","seven","yzm","aliyun","RJuMao","bilibili","1905","xinvip","XAL","qiqi","XALS","YuMi-vip"]}},
{"name":"无界","type":0,"url":"https://jx.xmflv.com/?url=","ext":{"flag":["qq","腾讯","qiyi","爱奇艺","奇艺","youku","优酷","mgtv","芒果","imgo","letv","乐视","pptv","PPTV","sohu","bilibili","哔哩哔哩","哔哩"],"header":{"User-Agent":"okhttp/4.1.0"}}},
{"name":"免费分享","url":"https://www.8090.la/8090/?url=","type":0,"ext":{"flag":["qiyi","imgo","爱奇艺","奇艺","qq","腾讯","youku","优酷","pptv","PPTV","letv","乐视","leshi","bilibili","哔哩哔哩","哔哩","mgtv","芒果","sohu","xigua","fun","风行"],"header":{"User-Agent":"Mozilla/5.0"}},"header":{"User-Agent":"Mozilla/5.0"}},
{"name":"QQ群48481548","type":0,"url":"https://jx.m3u8.tv/jiexi/?url="},
{"name":"PM","url":"https://www.playm3u8.cn/jiexi.php?url=","type":0,"ext":{"flag":["qiyi","imgo","爱奇艺","奇艺","qq","腾讯","youku","优酷","pptv","PPTV","letv","乐视","leshi","bilibili","哔哩哔哩","哔哩","mgtv","芒果","sohu","xigua","fun","风行"],"header":{"User-Agent":"Mozilla/5.0"}},"header":{"User-Agent":"Mozilla/5.0"}},
{"name":"爱豆","type":0,"url":"https://jx.aidouer.net/?url=","ext":{"header":{"user-agent":"Mozilla/5.0(Linux;Android13;V2049ABuild/TP1A.220624.014;wv)AppleWebKit/537.36(KHTML,likeGecko)Version/4.0Chrome/116.0.0.0MobileSafari/537.36","referer":"https://jiejie.uk/"}}}, 
{"name":"看看","type":0,"url":"https://jx.m3u8.pw/?url="},
{"name":"巧技1","type":1,"url":"http://pandown.pro/app/kkdy.php?url=","ext":{"flag":["qq","腾讯","qiyi","爱奇艺","奇艺","youku","优酷","sohu","搜狐","letv","乐视","mgtv","芒果","rx","ltnb","bilibili","1905","xigua"]}},
{"name":"巧技2","type":1,"url":"https://www.qiaoji8.com/tvbox/neibu.php?url=","ext":{"flag":["qq","腾讯","qiyi","爱奇艺","奇艺","youku","优酷","tucheng","sohu","搜狐","letv","乐视","mgtv","芒果","tnmb","seven","yzm","aliyun","RJuMao","bilibili","1905","xinvip","XAL","qiqi","XALS","YuMi-vip"]}},
{"name":"全民","url":"http://api.wpsseo.cn/?v=","type":0,"ext":{"flag":["qiyi","imgo","爱奇艺","奇艺","qq","腾讯","youku","优酷","pptv","PPTV","letv","乐视","leshi","bilibili","哔哩哔哩","哔哩","mgtv","芒果","sohu","xigua","fun","风行"],"header":{"User-Agent":"Mozilla/5.0"}},"header":{"User-Agent":"Mozilla/5.0"}},
{"name":"世界","type":1,"url":"http://175.178.183.192:84/api/?key=f3913eb3f85a8298b3e6e427b8712b2e&url=","ext":{"flag":["qq","mgtv","YuMi-vip"]}},
{"name":"虾米","type":0,"url":"https://jx.xmflv.com/?url=","ext":{"flag":["qq","腾讯","qiyi","爱奇艺","奇艺","youku","优酷","sohu","搜狐","letv","乐视","mgtv","芒果","imgo","rx","ltnb","bilibili","1905","xigua"]}},
{"name":"咸鱼","type":0,"url":"https://jx.xyflv.cc/?url=","ext":{"header":{"user-agent":"Mozilla/5.0(Linux;Android13;V2049ABuild/TP1A.220624.014;wv)AppleWebKit/537.36(KHTML,likeGecko)Version/4.0Chrome/116.0.0.0MobileSafari/537.36","referer":"https://www.xyflv.cc/"}}},
{"name":"云解析","type":0,"url":"https://jx.yparse.com/index.php?url=","ext":{"header":{"user-agent":"Mozilla/5.0(Linux;Android13;V2049ABuild/TP1A.220624.014;wv)AppleWebKit/537.36(KHTML,likeGecko)Version/4.0Chrome/116.0.0.0MobileSafari/537.36"}}},
{"name":"左岸","type":1,"url":"https://api.tyun77.cn/api.php/provide/parseDicturl?url=","ext":{"flag":["爱奇艺","奇艺","qq","腾讯","youku","优酷","pptv","PPTV","letv","乐视","leshi","bilibili","哔哩哔哩","哔哩","mgtv","芒果","芒果"],"header":{"User-Agent":"okhttp/3.12.0"}}}

],


"doh":[
{"name":"AdGuard","url":"https://dns.adguard.com/dns-query","ips":["94.140.14.140","94.140.14.141"]},
{"name":"Cloudflare","url":"https://cloudflare-dns.com/dns-query","ips":["1.1.1.1","1.0.0.1","2606:4700:4700::1111","2606:4700:4700::1001"]},
{"name":"DNSWatch","url":"https://resolver2.dns.watch/dns-query","ips":["84.200.69.80","84.200.70.40"]},
{"name":"Google","url":"https://dns.google/dns-query","ips":["8.8.4.4","8.8.8.8"]},
{"name":"Quad9","url":"https://dns.quad9.net/dns-quer","ips":["9.9.9.9","149.112.112.112"]}

],


"rules":[
{"host":"dyxs20.com","rule":[".m3u8"]},
{"host":"v.douyin.com","rule":["playwm/?video_id="]},
{"host":"www.agemys.cc","rule":["cdn-tos","obj/tos-cn"]},
{"host":"www.iesdouyin.com","rule":["playwm/?video_id="]},
{"host":"www.sharenice.net","rule":["http.*?/play.{0,3}\\?[^url]{2,8}=.*","qianpailive.com","vid="]},
{"host":"www.ysgc.vip","rule":["getm3u8?url=http"]},
{"name":"bf","hosts":["bfzy"],"regex":["#EXT-X-DISCONTINUITY\\r*\\n*#EXTINF:3,[\\s\\S]*?#EXT-X-DISCONTINUITY"]},
{"name":"cl","hosts":["magnet"],"regex":["最新","直播","更新"]},
{"name":"dy","hosts":["douyin.com"],"regex":["is_play_url="]},
{"name":"hs","hosts":["huoshan.com"],"regex":["item_id="]},
{"name":"hwk","hosts":["haiwaikan"],"regex":["10.0099","10.3333","16.0599","8.1748","10.85"]},
{"name":"lz","hosts":["vip.lz","hd.lz","v.cdnlz1","v.cdnlz"],"regex":["18.5333"]},
{"name":"nm","hosts":["toutiaovod.com"],"regex":["video/tos/cn"]},
{"name":"proxy","hosts":["raw.githubusercontent.com","googlevideo.com","cdn.v82u1l.com","cdn.iz8qkg.com","cdn.kin6c1.com","c.biggggg.com","c.olddddd.com","haiwaikan.com","www.histar.tv","youtube.com","uhibo.com",".*boku.*",".*nivod.*",".*ulivetv.*"]},
{"name":"sn","hosts":["suonizy"],"regex":["15.1666","15.2666"]},
{"name":"xx","hosts":["aws.ulivetv.net"],"regex":["#EXT-X-DISCONTINUITY\\r*\\n*#EXTINF:8,[\\s\\S]*?#EXT-X-DISCONTINUITY"]},
{"name":"yqk","hosts":["yqk88"],"regex":["18.4","15.1666"]},
{"name":"暴风","hosts":["bfzy","bfbfvip"],"regex":["#EXTINF.*?\\s+.*?adjump.*?\\.ts\\s+"]},
{"name":"非凡","hosts":["vip.ffzy","hd.ffzy"],"regex":["20.52","#EXT-X-DISCONTINUITY\\r*\\n*#EXTINF:7\\.400000,[\\s\\S]*?#EXT-X-DISCONTINUITY","#EXTINF.*?\\s+.*?1170(20|32).*?\\.ts\\s+","#EXTINF.*?\\s+.*?116977.*?\\.ts\\s+"]},
{"name":"非凡","hosts":["vip.ffzy","hd.ffzy"],"regex":["25.0666"]},
{"name":"快看","hosts":["kuaikan"],"regex":["#EXT-X-KEY:METHOD=NONE\\r*\\n*#EXTINF:5,[\\s\\S]*?#EXT-X-DISCONTINUITY","#EXT-X-KEY:METHOD=NONE\\r*\\n*#EXTINF:2\\.4,[\\s\\S]*?#EXT-X-DISCONTINUITY"]},
{"name":"量子","hosts":["vip.lz","hd.lz",".cdnlz"],"regex":["#EXT-X-DISCONTINUITY\\r*\\n*#EXTINF:6\\.666667,[\\s\\S]*?#EXT-X-DISCONTINUITY","#EXTINF.*?\\s+.*?1o.*?\\.ts\\s+"]},
{"name":"毛驢","hosts":["www.maolvys.com"],"script":["document.getElementsByClassName('swal-buttonswal-button--confirm')[0].click()"]}, 
{"name":"七新嗅探","hosts":["api.52wyb.com"],"regex":["m3u8?pt=m3u8"]},
{"name":"索尼","hosts":["suonizy"],"regex":["#EXT-X-DISCONTINUITY\\r*\\n*#EXTINF:1\\.000000,[\\s\\S]*?#EXT-X-DISCONTINUITY","#EXTINF.*?\\s+.*?p1ayer.*?\\.ts\\s+","#EXTINF.*?\\s+.*?\\/video\\/original.*?\\.ts\\s+"]},
{"name":"夜市","hosts":["yeslivetv.com"],"script":["document.getElementsByClassName('vjs-big-play-button')[0].click()"]}

],

"ijk":[  
{"group":"软解码","options":[{"category":4,"name":"opensles","value":"0"},{"category":4,"name":"overlay-format","value":"842225234"},{"category":4,"name":"framedrop","value":"1"},{"category":4,"name":"soundtouch","value":"1"},{"category":4,"name":"start-on-prepared","value":"1"},{"category":1,"name":"http-detect-range-support","value":"0"},{"category":1,"name":"fflags","value":"fastseek"},{"category":2,"name":"skip_loop_filter","value":"48"},{"category":4,"name":"reconnect","value":"1"},{"category":4,"name":"enable-accurate-seek","value":"0"},{"category":4,"name":"mediacodec","value":"0"},{"category":4,"name":"mediacodec-auto-rotate","value":"0"},{"category":4,"name":"mediacodec-handle-resolution-change","value":"0"},{"category":4,"name":"mediacodec-hevc","value":"0"},{"category":1,"name":"dns_cache_timeout","value":"600000000"}]},
{"group":"硬解码","options":[{"category":4,"name":"opensles","value":"0"},{"category":4,"name":"overlay-format","value":"842225234"},{"category":4,"name":"framedrop","value":"1"},{"category":4,"name":"soundtouch","value":"1"},{"category":4,"name":"start-on-prepared","value":"1"},{"category":1,"name":"http-detect-range-support","value":"0"},{"category":1,"name":"fflags","value":"fastseek"},{"category":2,"name":"skip_loop_filter","value":"48"},{"category":4,"name":"reconnect","value":"1"},{"category":4,"name":"enable-accurate-seek","value":"0"},{"category":4,"name":"mediacodec","value":"1"},{"category":4,"name":"mediacodec-auto-rotate","value":"1"},{"category":4,"name":"mediacodec-handle-resolution-change","value":"1"},{"category":4,"name":"mediacodec-hevc","value":"1"},{"category":1,"name":"dns_cache_timeout","value":"600000000"}]}
	],

"ads": [
"ae01.alicdn.com",
"api.htpan.net",
"c.cnzz.com",
"cdn.bootcss.com",
"cdnjs.hnfenxun.com",
"cms.qdwght.com",
"cnzz.hhttm.top",
"cnzz.mmstat.com",
"ehwe.yhdtns.com",
"f5w.as12df.top",
"hm.baidu.com",
"img.mosflower.cn",
"img.xunzhuo123.com",
"k.jinxiuzhilv.com",
"k.wudejia.com",
"mav.mavuz.com",
"mc.usihnbcq.cn",
"mg.g1mm3d.cn",
"mimg.0c1q0l.cn",
"mscs.svaeuzh.cn",
"ppl.xunzhuo123.com",
"q11.cnzz.com",
"qiu.xixiqiu.com",
"s13.cnzz.com",
"s19.cnzz.com",
"s23.cnzz.com",
"s4.cnzz.com",
"s9.cnzz.com",
"s96.cnzz.com",
"sp.chemacid.cn",
"stj.v1vo.top",
"thy.dacedsfa.cn",
"tips.gamevvip.com",
"tj.tianwenhu.com",
"tp.vinuxhome.com",
"um.cavuc.com",
"vivovip.mmszxc.top",
"wofwk.aoidf3.com",
"www.92424.cn",
"www.baihuillq.com",
"www.google-analytics.com",
"www.googletagmanager.com",
"www.jixunkyy.cn",
"xc.hubeijieshikj.cn",
"xdn.cqqc3.com",
"xg.gars57.cn",
"xg.huataisangao.cn",
"xg.huataisangao.cn",
"xg.whsbpw.cn",
"xomk.jiangjunmh.top",
"z1.cnzz.com",
"z12.cnzz.com",
"z2.cnzz.com",
"z3.cnzz.com",
"z5.cnzz.com",
"z6.cnzz.com",
"z7.cnzz.com",
"z8.cnzz.com"

]


}
