{
"spider":"https://ghproxy.com/https://raw.githubusercontent.com/gaotianliuyun/gao/master/jar/fan.txt;md5;5543dae038ce2248e7759e9cbca295b9",
"lives":[{"name":"初秋语•综合","type":0,"url":"https://ghproxy.com/https://raw.githubusercontent.com/gaotianliuyun/gao/master/list.txt","playerType":1,"epg":"http://epg.112114.xyz/?ch={name}&date={date}","logo":"https://epg.112114.xyz/logo/{name}.png"},
{"name":"YanG•综合","type":0,"url":"https://fongmi.cachefly.net/YanG-1989/m3u/main/Gather.m3u","playerType":1,"epg":"http://epg.112114.xyz/?ch={name}&date={date}","logo":"https://epg.112114.xyz/logo/{name}.png"},
{"name":"范明明•ipv6","type":0,"url":"https://fongmi.cachefly.net/fanmingming/live/main/tv/m3u/ipv6.m3u","playerType":1,"epg":"http://epg.112114.xyz/?ch={name}&date={date}","logo":"https://epg.112114.xyz/logo/{name}.png"},
{"name":"YueChan•综合","type":0,"url":"https://fongmi.cachefly.net/YueChan/Live/main/IPTV.m3u","playerType":1,"epg":"http://epg.112114.xyz/?ch={name}&date={date}","logo":"https://epg.112114.xyz/logo/{name}.png"},
{"name":"Yoursmile•综合","type":0,"url":"https://agit.ai/Yoursmile7/TVBox/branch/master/live.txt","playerType":1,"epg":"http://epg.112114.xyz/?ch={name}&date={date}","logo":"https://epg.112114.xyz/logo/{name}.png"},
{"name":"饭太硬•综合","type":0,"url":"https://agit.ai/fantaiying/0/branch/main/tvlive.txt","playerType":1,"ua": "okhttp/3.15","epg":"http://epg.112114.xyz/?ch={name}&date={date}","logo": "https://epg.112114.xyz/logo/{name}.png"},
{"name":"肥猫•综合","type":0,"url":"http://我不是.肥猫.live/TV/tvzb.txt","playerType":1,"epg":"http://epg.112114.xyz/?ch={name}&date={date}","logo":"https://epg.112114.xyz/logo/{name}.png"},
{"name":"Ray•综合","type":0,"url":"https://xhdwc.tk/tvlive.txt","playerType":1,"epg":"http://epg.112114.xyz/?ch={name}&date={date}","logo":"https://epg.112114.xyz/logo/{name}.png"},
{"name":"俊于•综合","type":0,"url":"http://home.jundie.top:81/Cat/tv/live.txt","playerType":1,"epg":"http://epg.112114.xyz/?ch={name}&date={date}","logo": "https://epg.112114.xyz/logo/{name}.png"},
{"name":"初秋语•电台","type":0,"url":"https://ghproxy.com/https://raw.githubusercontent.com/gaotianliuyun/gao/master/radio.txt","playerType":1},
{"name":"范明明•电台","type":0,"url":"https://fongmi.cachefly.net/fanmingming/live/main/radio/m3u/index.m3u","playerType":1},
{"name":"肥羊•斗鱼","type":0,"url":"https://fongmi.cachefly.net/Ftindy/IPTV-URL/main/douyuyqk.m3u","playerType":1},
{"name":"肥羊•虎牙","type":0,"url":"https://fongmi.cachefly.net/Ftindy/IPTV-URL/main/huyayqk.m3u","playerType":1},
{"name":"YanG•斗鱼","type":0,"url":"https://fongmi.cachefly.net/YanG-1989/m3u/main/yu.m3u"},
{"name":"YanG•虎牙","type":0,"url":"https://fongmi.cachefly.net/YanG-1989/m3u/main/ya.m3u"},
{"name":"16万•MV","type":0,"url":"https://fongmi.cachefly.net/lystv/short/main/影视/tvb/MTV.txt"},
{"name":"YuanHsing•油管","type":0,"url":"https://fongmi.cachefly.net/YuanHsing/YouTube_to_m3u/main/youtube.m3u"}
],
"wallpaper":"http://饭太硬.top/深色壁纸/api.php",
"sites":[
{"key":"豆豆","name":"豆瓣┃搜索","type": 3, "api": "csp_DouDou","searchable": 0,"quickSearch": 0,"filterable": 0},
{"key":"drpy_js_磁力熊搜索","name":"磁力熊┃搜索[js]","type":3,"api":"https://ghproxy.com/https://raw.githubusercontent.com/gaotianliuyun/gao/master/lib/drpy2.min.js","ext":"https://ghproxy.com/https://raw.githubusercontent.com/gaotianliuyun/gao/master/js/cilixiong.js","searchable":0,"quickSearch":0,"changeable":1},
{"key":"drpy_js_新片场","name":"新片场┃新片[js]","type":3,"api":"https://ghproxy.com/https://raw.githubusercontent.com/gaotianliuyun/gao/master/lib/drpy2.min.js","ext":"https://ghproxy.com/https://raw.githubusercontent.com/gaotianliuyun/gao/master/js/新片场.js"},
{"key":"csp_YGP","name":"预告片┃新片","type":3,"api":"csp_YGP","searchable":1,"quickSearch":1,"changeable":0},
{"key":"csp_Bili","name":"哔哩┃合集","type":3,"api":"csp_Bili","searchable":1,"quickSearch":1,"style":{"type":"rect","ratio":1.597},"filterable":1,"changeable":0,"ext":"https://ghproxy.com/https://raw.githubusercontent.com/gaotianliuyun/gao/master/json/chuqiuyu.json"},
{"key":"csp_xuexi","name":"哔哩┃学习园地","type":"3","api":"csp_Bili","searchable":"0","quickSearch":"0","style":{"type":"rect","ratio":1.597},"filterable":"1","changeable":0,"ext":"https://ghproxy.com/https://raw.githubusercontent.com/gaotianliuyun/gao/master/json/xuexi.json"},
{"key":"玩偶哥哥","name":"玩偶哥哥┃4K弹幕","type":3,"api":"csp_WoGG","searchable":1,"quickSearch":1,"changeable":0,"ext":"http://127.0.0.1:9978/file/tvfan/token.txt+4k|auto|fhd$$$https://www.wogg.xyz/$$$弹"},
{"key":"csp_Aid","name":"急救┃指南","type":3,"api":"csp_FirstAid","searchable":1,"quickSearch":1,"changeable":0,"style": { "type": "rect", "ratio":3.8}},
{"key":"lf_js_lf_live","name":"电视┃直播[js]","type":3,"api":"https://ghproxy.com/https://raw.githubusercontent.com/gaotianliuyun/gao/master/lib/lf_live_min.js","style":{ "type":"oval"},"searchable":1,"changeable":0,"quickSearch":1,"filterable":1,"ext":"https://ghproxy.com/https://raw.githubusercontent.com/gaotianliuyun/gao/master/js/lf_live.txt"},
{"key":"看球","name":"看球┃体育","type":3,"api":"csp_Kanqiu","searchable":1,"changeable":0,"style":{"type":"list"},"timeout":30},
{"key":"短剧","name":"短剧┃合集","type":3,"api":"csp_Duanju","searchable":1,"changeable":0,"style":{"type":"rect","ratio":1.433},"timeout":30},

{"key":"快手直播","name":"快手┃直播","type": 3,"api":"csp_KsLive","jar":"https://ghproxy.com/https://raw.githubusercontent.com/gaotianliuyun/gao/master/jar/ok.png;md5;E5F0A5283309C662BDAF3659A55E9F1D","searchable":0,"quickSearch":0,"filterable":1,"style":{"type":"rect","ratio":1.433}},
{"key":"JustLive","name":"JustLive┃直播","type":3,"api":"csp_JustLive","jar":"https://ghproxy.com/https://raw.githubusercontent.com/gaotianliuyun/gao/master/jar/ok.png;md5;E5F0A5283309C662BDAF3659A55E9F1D","searchable":1,"changeable":0,"style":{"type":"rect","ratio":1.433}},
{"key":"玩偶弹幕版","name":"玩偶哥哥┃弹幕","type":3,"api":"csp_Wogg","searchable":1,"filterable":1,"changeable":0, "ext": {"token": "http://127.0.0.1:9978/file/TV/token.txt","filter": "https://ghproxy.com/https://raw.githubusercontent.com/gaotianliuyun/gao/master/json/wogg.json","site": "https://www.wogg.xyz","danmu" : true},"jar":"https://ghproxy.com/https://raw.githubusercontent.com/gaotianliuyun/gao/master/jar/ok.png;md5;E5F0A5283309C662BDAF3659A55E9F1D", "timeout":30},
{"key":"运输车弹幕版","name":"运输车┃弹幕","type":3,"api":"csp_Wogg","searchable":1,"filterable":1,"changeable":0, "ext": {"token": "http://127.0.0.1:9978/file/TV/token.txt","cookie": "http://127.0.0.1:9978/file/TV/quark.txt","site": "https://www.weixine.net", "danmu" : true},  "timeout":30,"jar":"https://ghproxy.com/https://raw.githubusercontent.com/gaotianliuyun/gao/master/jar/ok.png;md5;E5F0A5283309C662BDAF3659A55E9F1D"},
{"key":"玩偶表哥弹幕","name":"玩偶表哥┃弹幕","type":3,"api":"csp_Wobg","jar":"https://ghproxy.com/https://raw.githubusercontent.com/gaotianliuyun/gao/master/jar/ok.png;md5;E5F0A5283309C662BDAF3659A55E9F1D","quickSearch":1, "changeable":1, "filterable":1, "ext": {  "token": "http://127.0.0.1:9978/file/TV/token.txt",  "cookie": "http://127.0.0.1:9978/file/TV/quark.txt",  "danmu" : true}, "timeout":30},
{"key":"sp360","name":"360┃弹幕","type":3,"api":"csp_Sp360","searchable":1,"filterable":1,"changeable":1,"ext":  {"danmu": true},"jar":"https://ghproxy.com/https://raw.githubusercontent.com/gaotianliuyun/gao/master/jar/ok.png;md5;E5F0A5283309C662BDAF3659A55E9F1D", "timeout":30},
{"key":"荐片弹幕版","name":"荐片┃弹幕","type": 3,"api":"csp_Jianpian","searchable":1,"quickSearch":1,"filterable":1,"ext": {"danmu": true},"jar":"https://ghproxy.com/https://raw.githubusercontent.com/gaotianliuyun/gao/master/jar/ok.png;md5;E5F0A5283309C662BDAF3659A55E9F1D", "timeout":30},
{"key":"泥巴弹幕版","name":"泥巴┃弹幕","type":3,"api":"csp_NiNi","searchable":1,"changeable":1,"ext": {"danmu": true},"jar":"https://ghproxy.com/https://raw.githubusercontent.com/gaotianliuyun/gao/master/jar/ok.png;md5;E5F0A5283309C662BDAF3659A55E9F1D", "timeout":30},
{"key":"csp_QuPanSou","name":"趣盘搜┃弹幕","type":3,"api":"csp_QuPanSou","searchable":1,"filterable":1,"changeable":0,"ext":{"cookie":"http://127.0.0.1:9978/file/TV/quark.txt", "danmu": true},"jar":"https://ghproxy.com/https://raw.githubusercontent.com/gaotianliuyun/gao/master/jar/ok.png;md5;E5F0A5283309C662BDAF3659A55E9F1D", "timeout":30},
{"key":"csp_Qkpanso","name":"夸克盘搜┃弹幕","type":3,"api":"csp_Qkpanso","searchable":1,"filterable":1,"changeable":0,"ext":{"cookie":"http://127.0.0.1:9978/file/TV/quark.txt", "danmu": true},"jar":"https://ghproxy.com/https://raw.githubusercontent.com/gaotianliuyun/gao/master/jar/ok.png;md5;E5F0A5283309C662BDAF3659A55E9F1D", "timeout":30},
{"key":"纸条","name":"纸条┃弹幕","type":3,"api":"csp_XiaoZhiTiao","searchable":1,"filterable":1,"changeable":0,"ext":{"token":"http://127.0.0.1:9978/file/TV/token.txt", "danmu": true},"jar":"https://ghproxy.com/https://raw.githubusercontent.com/gaotianliuyun/gao/master/jar/ok.png;md5;E5F0A5283309C662BDAF3659A55E9F1D", "timeout":30},
{"key":"盘Se","name":"盘Se┃弹幕","type":3,"api":"csp_PanSearch","searchable":1,"filterable":0,"changeable":0,"ext":{"token":"http://127.0.0.1:9978/file/TV/token.txt", "danmu": true},"jar":"https://ghproxy.com/https://raw.githubusercontent.com/gaotianliuyun/gao/master/jar/ok.png;md5;E5F0A5283309C662BDAF3659A55E9F1D", "timeout":30},
{"key":"找資源","name":"找資源┃弹幕","type":3,"api":"csp_Zhaozy","searchable":1,"filterable":0,"changeable":0,"ext":{"token":"http://127.0.0.1:9978/file/TV/token.txt", "username": "fanty", "password": "qqq111", "danmu": true},"jar":"https://ghproxy.com/https://raw.githubusercontent.com/gaotianliuyun/gao/master/jar/ok.png;md5;E5F0A5283309C662BDAF3659A55E9F1D", "timeout":30},
{"key":"七夜","name":"七夜┃弹幕","type":3,"api":"csp_Dovx","searchable":1,"filterable":0,"changeable":0,"ext":{"token":"http://127.0.0.1:9978/file/TV/token.txt", "danmu": true},"jar":"https://ghproxy.com/https://raw.githubusercontent.com/gaotianliuyun/gao/master/jar/ok.png;md5;E5F0A5283309C662BDAF3659A55E9F1D", "timeout":30},
{"key":"盘搜","name":"盘搜┃弹幕","type":3,"api":"csp_PanSou","searchable":1,"filterable":0,"changeable":0,"ext":{"token":"http://127.0.0.1:9978/file/TV/token.txt", "danmu": true},"jar":"https://ghproxy.com/https://raw.githubusercontent.com/gaotianliuyun/gao/master/jar/ok.png;md5;E5F0A5283309C662BDAF3659A55E9F1D", "timeout":30},
{"key":"易搜","name":"易搜┃弹幕","type":3,"api":"csp_YiSo","searchable":1,"filterable":0,"changeable":0,"ext":{"token":"http://127.0.0.1:9978/file/TV/token.txt", "danmu": true, "cookie": "JSESSIONID=FEAFA3BD405267C378C2455FBAD4A704;satoken=0f065aaa-1b6b-4b9b-9910-83a67fb14da2"},"jar":"https://ghproxy.com/https://raw.githubusercontent.com/gaotianliuyun/gao/master/jar/ok.png;md5;E5F0A5283309C662BDAF3659A55E9F1D", "timeout":30},
{"key":"Up云搜","name":"Up云搜┃弹幕","type":3,"api":"csp_Upys","searchable":1,"filterable":0,"changeable":0,"ext":{"token":"http://127.0.0.1:9978/file/TV/token.txt", "danmu": true},"jar":"https://ghproxy.com/https://raw.githubusercontent.com/gaotianliuyun/gao/master/jar/ok.png;md5;E5F0A5283309C662BDAF3659A55E9F1D", "timeout":30},
{"key":"云盘4K","name":"云盘┃弹幕","type":3,"api":"csp_Yunpan4k","searchable":1,"filterable":0,"changeable":0,"ext":{"token":"http://127.0.0.1:9978/file/TV/token.txt", "danmu": true},"jar":"https://ghproxy.com/https://raw.githubusercontent.com/gaotianliuyun/gao/master/jar/ok.png;md5;E5F0A5283309C662BDAF3659A55E9F1D", "timeout":30},
{"key":"配置中心","name":"配置┃中心","type":3,"api":"csp_Config","searchable":0,"changeable":0,"style":{"type":"rect","ratio":1},"jar":"https://ghproxy.com/https://raw.githubusercontent.com/gaotianliuyun/gao/master/jar/ok.png;md5;E5F0A5283309C662BDAF3659A55E9F1D"},
{"key":"push_agent","name":"手机┃推送","type":3,"api":"csp_Push","searchable":0,"filterable":0,"changeable":0,"ext":{"token":"http://127.0.0.1:9978/file/TV/token.txt", "cookie": "http://127.0.0.1:9978/file/TV/quark.txt", "danmu": true},"jar":"https://ghproxy.com/https://raw.githubusercontent.com/gaotianliuyun/gao/master/jar/ok.png;md5;E5F0A5283309C662BDAF3659A55E9F1D", "timeout":30},

{"key":"Czsapp","name":"厂长┃直连","type":3,"api":"csp_Czsapp","playerType":2,"searchable":1,"quickSearch":1,"changeable":1,"ext": "https://www.czzy66.com/"},
{"key":"Xinsj","name":"视觉┃直连","type":3,"api":"csp_Xinsj","searchable":1,"quickSearch":1,"changeable":1,"ext":"https://www.hdmyy.com/"},
{"key":"南坊","name":"南坊┃App","type":3,"api":"csp_AppMao","searchable":1,"quickSearch":1,"changeable":1,"ext": "FbjCcU1KqpC5pkRX4Q3D+NciPclIFs4EHzRV89m3pENRS6PivxPrlXvH/4efUSWwUCWwwk8srkIDSXN9RIJkSCZPJqnRikLRakBH0XBB6uNlX6XgMjhUKBTbBXopnsWdvXX6OowIBLQ78wghs3yRbgJxOYvrglBVIeI4cTcDGxixtMJ+yL0zE9g1d+N2RH4JERZh3CoYXSO1hH420ARbjt08lerroREmfGoT8JEGfTFW3MrK3hWueIyRsyOllsj/P87VXSxEVLnwNm4fos8lCFL74+azvs61n89svqg="},
{"key":"九六","name":"九六┃直连","type":3,"api":"csp_Cs1369","playerType":2,"searchable":1,"quickSearch":1,"changeable":1},
{"key":"南瓜","name":"南瓜┃App","type":3,"api":"csp_NanGua","playerType":2,"searchable":1,"quickSearch":1,"changeable":1},
{"key":"77","name":"七七┃App","type":3,"api":"csp_Kunyu77","searchable":1,"quickSearch":1,"changeable":1},
{"key":"小柚","name":"小柚┃App","type":3,"api":"csp_AppSK","searchable":1,"quickSearch":1,"changeable":1,"ext": "FbjPcVZY48PN/RIZ5QqOrsp7JoZYCZdLEy9R9ri6ykNdUNSIsT3IgxCP9qyzByO7ZG6Z030vgWoyXGNlCJx9KFpYXtyZ3B/cLTtO0SAclaw3AOm0fS9oLx2taGF6hg=="},
{"key":"萌米","name":"萌米┃App","type":3,"api":"csp_AppMao","searchable":1,"quickSearch":1,"changeable":1,"ext":"FbjKZ1gO+9u81wMIxzHg+7x1Oep4CIFuZAlCy8a4qCgjGLacnxDo6wiBr66jP3X8J2mRx31u1XgkTTVrENVjfhQKUN2Yi12XNWQSlmVZxLtiSaSiZG0xf1Hw"},
{"key":"嘿嘿","name":"嘿嘿┃App","type":3,"api":"csp_AppMao","searchable":1,"quickSearch":1,"changeable":1,"ext":"FbjDcUxPqpfNr0QF4QvE6sExbcBEGIRZVnQTs7Kyyk1SScOZ8j/C1ATO/eqjASKwdHWA2zQtjGMwVDA+Ttluew9LCZzZnFyFNWEAlX0KjLdiSaX+NDNVdVG1JjEvnt3n7STfbcZ8C5QA+hYk60bwQH58e7eO7msRAJ0ZbmFDDly40NBDxuYsAq8lZuJzVkw0ZkMhqBM9YRPP8mMU/CJYsuBptunppHVQfFQjk8wxXjVRsNe75CuoY+zt9w+Smcm9PL37bGJHS6+1cFg1xMgqVxqvyPfuq5Dvyo1q66Q1NXwhDe4x21KVg4iRMET6Z3Jna25wcmku6xbznbFxlZqH3DqtpBKXLcNrx6n6vgn+/lHRmp5g13bG1xc/jwO78tZL0Pei6A=="},
{"key":"毛驴","name":"毛驴┃直连","type":3,"api":"csp_MLYS","searchable":1,"quickSearch":1,"changeable":1,"ext":"https://www.maolvys.com/"},
{"key":"星奇","name":"星奇┃App","type":3,"api":"csp_AppMao","playerType":2,"searchable":1,"quickSearch":1,"changeable":1,"ext":"FbjDcUxPqpfNr0QF4QvE6sExbd4UXJxJXzdL462ywU1XScGa5G6Hj0/c+Ou1GW6rdX6N2XIhnD46QzIsRoZ8bk4fG4OYi0iCaWwRj2ddkacwFqHtLjQhalHqIy0+kpiTv2eOfJYxTshgrxcJ+g3lEHx7ZLC9kB1TCfZUSHwqHB3tt6V/1OhRENIOZNRFfXVBEFd7jQg+J06kjCAF7z1Bt8hRvMjC2VcbQXsEz8MCZDgu06C9/wirWcTa/wWJsfT+Z7fXaDs+dIWMYiwf6td5CWTx6LfL6eTuiMhs2KU5Byw9F+4Y/AHBg4r+LEe+Hm4EM2d8X3ca5zHSj+kjmpXOiGDo4TalFqgTq67eggmthCbV2d131SKc03V+5gruudQQk/Tb9e4lg6SQhA9/5kWOOM/LRmkqIxSt6d0wpu7yKKh65enwKbgasc93/HnGr6W4LuZjf6eYnS2GgRzWRE0fT5lYNmxnWeRnYuLhoZbDqslAfJzg"},
{"key":"电影","name":"电影┃App","type":3,"api":"csp_AppSK","searchable":1,"quickSearch":1,"changeable":1,"ext": "FbjPcVZY48PN/RIZ5QqOrspkJ4ZHF98MCHVX87i5y01XUNSIsT3IgxCP9qyzByO7aWmK03MmmHYwQmNlCJx9KFpYWNSc3hbeLTlD3SAclaw3AOnn"},
{"key":"一起看 ","name":"一起┃App","type":3,"api":"csp_YQKan","searchable":1,"quickSearch":1,"changeable":1},
{"key":"DiDuan","name":"低端┃直连","type":3,"api":"csp_Ddrk","playerType":"2","searchable":1,"quickSearch":1,"changeable":1},
{"key":"csp_Bttoo","name":"比特┃直连","type":3,"api":"csp_Bttwoo","searchable":1,"quickSearch":1,"changeable":1},
{"key":"Lib","name": "利播┃直连","type": 3,"api": "csp_Libvio","searchable": 1,"quickSearch": 1,"changeable":1,"ext":"https://www.libvio.pro/"},
{"key":"csp_Nmys","name":"农民┃直连","type":3,"api":"csp_Nmys","searchable":1,"quickSearch":1,"changeable":1,"ext":"https://ghproxy.com/https://raw.githubusercontent.com/gaotianliuyun/gao/master/json/nmys.json"}, 
{"key":"Auete","name":"奥特┃直连","type": 3,"api":"csp_Auete","searchable":1,"quickSearch":1,"changeable":1,"ext":"https://haozhansou.com/"}, 
{"key":"csp_SP33","name":"三三┃解析","type":3,"api":"csp_SP33","searchable":1,"quickSearch":1,"filterable":1,"changeable":0},
{"key":"贱贱","name":"贱贱┃p2p","type":3,"searchable":1,"quickSearch":1,"changeable":1,"playerType":"1","api":"https://ghproxy.com/https://raw.githubusercontent.com/gaotianliuyun/gao/master/lib/drpy2.min.js","ext":"https://ghproxy.com/https://raw.githubusercontent.com/gaotianliuyun/gao/master/js/荐片.js"},
{"key":"csp_Dm84","name":"动漫┃巴士","type":3,"api":"csp_Dm84","searchable":1,"quickSearch":1,"filterable":1},
{"key":"csp_Ying","name":"樱花┃动漫","type":3,"api":"csp_Ying","searchable":1,"quickSearch":1,"filterable":1},
{"key":"csp_Ysj","name":"异界┃动漫","type":3,"api":"csp_Ysj","searchable":1,"quickSearch":1,"filterable":1},
{"key":"csp_Anime1","name":"日本┃动漫","type": 3,"api": "csp_Anime1","searchable": 1,"quickSearch": 1,"filterable": 1},
{"key":"csp_Yj1211","name":"网红┃直播","type": 3,"api": "csp_Yj1211","searchable": 0,"quickSearch": 1,"changeable":0},
{"key":"csp_Nbys","name":"泥巴┃飞","type":3,"api":"csp_NiNi","searchable":1,"quickSearch":1,"filterable":1},
{"key":"csp_trj","name": "唐人街┃飞","type": 3,"api": "csp_Tangrenjie","searchable": 1,"quickSearch": 1,"filterable": 1},

{"key":"csp_AList","name":"AList┃网盘","type":"3","api":"csp_AList","searchable":"0","quickSearch":"0","filterable":"1","changeable":0,"ext":"https://ghproxy.com/https://raw.githubusercontent.com/gaotianliuyun/gao/master/json/alist.json"},
{"key":"新6V","name":"新6V磁力┃慎用","type":3,"api":"csp_SixV","searchable":1,"quickSearch":1,"changeable":0,"ext": "http://www.xb6v.com/","timeout":30},

{"key":"百度","name":"百度┃采集","type":1,"api":"https://api.apibdzy.com/api.php/provide/vod?ac=list","searchable":1,"filterable":0,"categories":["国产动漫","日韩动漫","大陆剧","欧美剧","韩剧","日剧","动作片","喜剧片","爱情片","科幻片","恐怖片","剧情片","战争片"]},
{"key":"量子","name":"量子┃采集","type":0,"api":"https://cj.lziapi.com/api.php/provide/vod/at/xml/","searchable":1,"changeable":1,"categories":["国产动漫","日韩动漫","国产剧","韩国剧","日本剧","电影片","连续剧","综艺片","动漫片","动作片","喜剧片","爱情片","科幻片","恐怖片","剧情片","战争片","台湾剧","香港剧","欧美剧","记录片","海外剧","泰国剧","大陆综艺","港台综艺","日韩综艺","欧美综艺","欧美动漫","港台动漫","海外动漫","体育","足球","篮球","网球","斯诺克"]},
{"key":"非凡","name":"非凡┃采集","type":0,"api":"http://cj.ffzyapi.com/api.php/provide/vod/at/xml/","searchable":1,"changeable":1,"categories":["国产动漫","日韩动漫","国产剧","韩国剧","日本剧","电影片","连续剧","综艺片","动漫片","动作片","喜剧片","爱情片","科幻片","恐怖片","剧情片","战争片","香港剧","欧美剧","记录片","台湾剧","海外剧","泰国剧","大陆综艺","港台综艺","日韩综艺","欧美综艺","欧美动漫","港台动漫","海外动漫"]},
{"key":"haiwaikan","name":"海外看┃采集","type":1,"api":"https://haiwaikan.com/api.php/provide/vod","searchable":1,"changeable":1},
{"key":"暴風","name":"暴風┃采集","type":1,"api":"https://bfzyapi.com/api.php/provide/vod","searchable":1,"changeable":1},
{"key":"索尼","name":"索尼┃采集","type":1,"api":"https://suoniapi.com/api.php/provide/vod","searchable":1,"changeable":1},
{"key":"快帆","name":"快帆┃采集","type":1,"api":"https://api.kuaifan.tv/api.php/provide/vod","searchable":1,"changeable":1},
{"key":"88js","name":"88看球┃体育","type":3,"api":"https://ghproxy.com/https://raw.githubusercontent.com/gaotianliuyun/gao/master/lib/drpy.min.js","ext":"https://ghproxy.com/https://raw.githubusercontent.com/gaotianliuyun/gao/master/js/88看球.js","style":{"type":"rect","ratio":1},"searchable": 0,"quickSearch": 0,"changeable":0},
{"key":"drpy_js_310直播","name":"310直播┃体育","type":3,"api":"https://ghproxy.com/https://raw.githubusercontent.com/gaotianliuyun/gao/master/lib/drpy2.min.js","changeable":0,"style":{"type":"rect","ratio":1},"ext":"https://ghproxy.com/https://raw.githubusercontent.com/gaotianliuyun/gao/master/js/310直播.js"},
{"key":"drpy_js_抓饭体育","name":"抓饭┃体育","type":3,"api":"https://ghproxy.com/https://raw.githubusercontent.com/gaotianliuyun/gao/master/lib/drpy.min.js","changeable":0,"style":{"type":"rect","ratio":1},"ext":"https://ghproxy.com/https://raw.githubusercontent.com/gaotianliuyun/gao/master/js/抓饭体育.js"},
{"key":"csp_xp_qiumi","name":"Jrs球迷┃体育","type": 3,"api": "csp_XPath","style":{"type":"rect","ratio":1},"searchable": 0,"quickSearch": 0,"changeable":0,"ext": "https://ghproxy.com/https://raw.githubusercontent.com/gaotianliuyun/gao/master/json/dj看球.json"},
{"key":"csp_XPath_企鹅体育","name":"企鹅┃体育","type":3,"api":"csp_XPath","style":{"type":"rect","ratio":1.597},"searchable":0,"quickSearch":0,"changeable":0,"ext":"https://ghproxy.com/https://raw.githubusercontent.com/gaotianliuyun/gao/master/json/企鹅直播.json"},
{"key":"MV_vod","name":"卡拉OK┃MV","type":1,"api":"https://mv.wogg.link/mv/vod","searchable":1,"style":{ "type":"oval", "ratio":1.1 },"changeable":1,"filterable":1,"changeable":0},
{"key":"csp_xBPQ_短视频","name":"短视频┃聚合[XBPQ]","type":3,"api":"csp_XBPQ","changeable":0,"ext":"https://ghproxy.com/https://raw.githubusercontent.com/gaotianliuyun/gao/master/XBPQ/短视频.json"},

{"key":"drpy_js_360影视","name":"官源┃360[js]","type":3,"api":"https://ghproxy.com/https://raw.githubusercontent.com/gaotianliuyun/gao/master/lib/drpy2.min.js","ext":"https://ghproxy.com/https://raw.githubusercontent.com/gaotianliuyun/gao/master/js/360影视.js"},
{"key":"drpy_js_奇珍异兽","name":"官源┃爱奇艺[js]","type":3,"api":"https://ghproxy.com/https://raw.githubusercontent.com/gaotianliuyun/gao/master/lib/drpy2.min.js","ext":"https://ghproxy.com/https://raw.githubusercontent.com/gaotianliuyun/gao/master/js/奇珍异兽.js"},
{"key":"drpy_js_百忙无果","name":"官源┃芒果[js]","type":3,"api":"https://ghproxy.com/https://raw.githubusercontent.com/gaotianliuyun/gao/master/lib/drpy2.min.js","ext":"https://ghproxy.com/https://raw.githubusercontent.com/gaotianliuyun/gao/master/js/百忙无果.js"},
{"key":"drpy_js_腾云驾雾","name":"官源┃腾讯[js]","type":3,"api":"https://ghproxy.com/https://raw.githubusercontent.com/gaotianliuyun/gao/master/lib/drpy2.min.js","ext":"https://ghproxy.com/https://raw.githubusercontent.com/gaotianliuyun/gao/master/js/腾云驾雾.js"},
{"key":"drpy_js_菜狗","name":"官源┃搜狗[js]","type":3,"api":"https://ghproxy.com/https://raw.githubusercontent.com/gaotianliuyun/gao/master/lib/drpy2.min.js","ext":"https://ghproxy.com/https://raw.githubusercontent.com/gaotianliuyun/gao/master/js/菜狗.js"},
{"key":"drpy_js_优酷","name":"官源┃优酷[js]","type":3,"api":"https://ghproxy.com/https://raw.githubusercontent.com/gaotianliuyun/gao/master/lib/drpy2.min.js","ext":"https://ghproxy.com/https://raw.githubusercontent.com/gaotianliuyun/gao/master/js/优酷.js"},
{"key":"drpy_js_我的哔哩","name":"弹幕┃我的哔哩[js]","type":3,"api":"https://ghproxy.com/https://raw.githubusercontent.com/gaotianliuyun/gao/master/lib/drpy2.min.js","style":{"type":"rect","ratio":1.597},"changeable":0,"ext":"https://ghproxy.com/https://raw.githubusercontent.com/gaotianliuyun/gao/master/js/我的哔哩.js"},
{"key":"drpy_js_哔哩直播","name":"弹幕┃哔哩直播[js]","type":3,"api":"https://ghproxy.com/https://raw.githubusercontent.com/gaotianliuyun/gao/master/lib/drpy2.min.js","style":{"type":"rect","ratio":1.597},"changeable":0,"ext":"https://ghproxy.com/https://raw.githubusercontent.com/gaotianliuyun/gao/master/js/哔哩直播.js"},
{"key":"drpy_js_JustLive","name":"直播┃JustLive[js]","type":3,"api":"https://ghproxy.com/https://raw.githubusercontent.com/gaotianliuyun/gao/master/lib/drpy2.min.js","style":{"type":"rect","ratio":1.597},"changeable":0,"ext":"https://ghproxy.com/https://raw.githubusercontent.com/gaotianliuyun/gao/master/js/JustLive.js"},
{"key":"drpy_js_斗鱼直播","name":"直播┃斗鱼[js]","type":3,"api":"https://ghproxy.com/https://raw.githubusercontent.com/gaotianliuyun/gao/master/lib/drpy2.min.js","style":{"type":"rect","ratio":1.597},"changeable":0,"ext":"https://ghproxy.com/https://raw.githubusercontent.com/gaotianliuyun/gao/master/js/斗鱼直播.js"},
{"key":"drpy_js_虎牙直播","name":"直播┃虎牙[js]","type":3,"api":"https://ghproxy.com/https://raw.githubusercontent.com/gaotianliuyun/gao/master/lib/drpy2.min.js","style":{"type":"rect","ratio":1.597},"changeable":0,"ext":"https://ghproxy.com/https://raw.githubusercontent.com/gaotianliuyun/gao/master/js/虎牙直播.js"},
{"key":"drpy_js_童趣","name":"少儿┃童趣[js]","type":3,"api":"https://ghproxy.com/https://raw.githubusercontent.com/gaotianliuyun/gao/master/lib/drpy2.min.js","changeable":0,"ext":"https://ghproxy.com/https://raw.githubusercontent.com/gaotianliuyun/gao/master/js/童趣.js"},
{"key":"drpy_js_兔小贝","name":"少儿┃兔小贝[js]","type":3,"api":"https://ghproxy.com/https://raw.githubusercontent.com/gaotianliuyun/gao/master/lib/drpy2.min.js","changeable":0,"ext":"https://ghproxy.com/https://raw.githubusercontent.com/gaotianliuyun/gao/master/js/兔小贝.js"},
{"key":"drpy_js_AnFuns","name":"动漫┃AnFuns[js]","type":3,"api":"https://ghproxy.com/https://raw.githubusercontent.com/gaotianliuyun/gao/master/lib/drpy2.min.js","ext":"https://ghproxy.com/https://raw.githubusercontent.com/gaotianliuyun/gao/master/js/AnFuns.js"},
{"key":"drpy_js_NT动漫","name":"动漫┃NT动漫[js]","type":3,"api":"https://ghproxy.com/https://raw.githubusercontent.com/gaotianliuyun/gao/master/lib/drpy2.min.js","ext":"https://ghproxy.com/https://raw.githubusercontent.com/gaotianliuyun/gao/master/js/NT动漫.js"},
{"key":"drpy_js_NyaFun","name":"动漫┃NyaFun[js]","type":3,"api":"https://ghproxy.com/https://raw.githubusercontent.com/gaotianliuyun/gao/master/lib/drpy2.min.js","ext":"https://ghproxy.com/https://raw.githubusercontent.com/gaotianliuyun/gao/master/js/NyaFun.js"},
{"key":"drpy_js_omofun动漫","name":"动漫┃omofun动漫[js]","type":3,"api":"https://ghproxy.com/https://raw.githubusercontent.com/gaotianliuyun/gao/master/lib/drpy2.min.js","ext":"https://ghproxy.com/https://raw.githubusercontent.com/gaotianliuyun/gao/master/js/omofun动漫.js"},
{"key":"drpy_js_听书网","name":"听书┃听书网[js]","type":3,"api":"https://ghproxy.com/https://raw.githubusercontent.com/gaotianliuyun/gao/master/lib/drpy2.min.js","changeable":0,"ext":"https://ghproxy.com/https://raw.githubusercontent.com/gaotianliuyun/gao/master/js/听书网.js"},
{"key":"drpy_js_喜马拉雅","name":"听书┃喜马拉雅[js]","type":3,"api":"https://ghproxy.com/https://raw.githubusercontent.com/gaotianliuyun/gao/master/lib/drpy2.min.js","changeable":0,"ext":"https://ghproxy.com/https://raw.githubusercontent.com/gaotianliuyun/gao/master/js/喜马拉雅.js"},
{"key":"drpy_js_评书随身听","name":"评书┃评书随身听[js]","type":3,"api":"https://ghproxy.com/https://raw.githubusercontent.com/gaotianliuyun/gao/master/lib/drpy2.min.js","changeable":0,"ext":"https://ghproxy.com/https://raw.githubusercontent.com/gaotianliuyun/gao/master/js/评书随身听.js"},
{"key":"drpy_js_相声随身听","name":"相声┃相声随身听[js]","type":3,"api":"https://ghproxy.com/https://raw.githubusercontent.com/gaotianliuyun/gao/master/lib/drpy2.min.js","changeable":0,"ext":"https://ghproxy.com/https://raw.githubusercontent.com/gaotianliuyun/gao/master/js/相声随身听.js"},
{"key":"drpy_js_好趣网","name":"电视┃好趣网[js]","type":3,"api":"https://ghproxy.com/https://raw.githubusercontent.com/gaotianliuyun/gao/master/lib/drpy2.min.js","changeable":0,"style":{ "type":"oval", "ratio":1.1 },"ext":"https://ghproxy.com/https://raw.githubusercontent.com/gaotianliuyun/gao/master/js/好趣网.js"},
{"key":"drpy_js_广播迷FM","name":"广播┃广播迷FM[js]","type":3,"api":"https://ghproxy.com/https://raw.githubusercontent.com/gaotianliuyun/gao/master/lib/drpy2.min.js","changeable":0,"ext":"https://ghproxy.com/https://raw.githubusercontent.com/gaotianliuyun/gao/master/js/广播迷FM.js"},
{"key":"drpy_js_蜻蜓FM","name":"广播┃蜻蜓FM[js]","type":3,"api":"https://ghproxy.com/https://raw.githubusercontent.com/gaotianliuyun/gao/master/lib/drpy2.min.js","changeable":0,"ext":"https://ghproxy.com/https://raw.githubusercontent.com/gaotianliuyun/gao/master/js/蜻蜓FM.js"},
{"key":"drpy_js_DJ音乐","name":"音频┃DJ音乐[js]","type":3,"api":"https://ghproxy.com/https://raw.githubusercontent.com/gaotianliuyun/gao/master/lib/drpy2.min.js","changeable":0,"ext":"https://ghproxy.com/https://raw.githubusercontent.com/gaotianliuyun/gao/master/js/DJ音乐.js"},
{"key":"drpy_js_种子音乐","name":"音频┃种子音乐[js]","type":3,"api":"https://ghproxy.com/https://raw.githubusercontent.com/gaotianliuyun/gao/master/lib/drpy2.min.js","changeable":0,"ext":"https://ghproxy.com/https://raw.githubusercontent.com/gaotianliuyun/gao/master/js/种子音乐.js"},
{"key":"drpy_js_短视频","name":"聚合┃短视频[js]","type":3,"api":"https://ghproxy.com/https://raw.githubusercontent.com/gaotianliuyun/gao/master/lib/drpy2.min.js","changeable":0,"ext":"https://ghproxy.com/https://raw.githubusercontent.com/gaotianliuyun/gao/master/js/短视频.js"},
{"key":"drpy_js_酷6网","name":"聚合┃酷6网[js]","type":3,"api":"https://ghproxy.com/https://raw.githubusercontent.com/gaotianliuyun/gao/master/lib/drpy2.min.js","changeable":0,"ext":"https://ghproxy.com/https://raw.githubusercontent.com/gaotianliuyun/gao/master/js/酷6网.js"},
{"key":"drpy_js_网易公版影像","name":"聚合┃网易公版[js]","type":3,"api":"https://ghproxy.com/https://raw.githubusercontent.com/gaotianliuyun/gao/master/lib/drpy2.min.js","changeable":0,"ext":"https://ghproxy.com/https://raw.githubusercontent.com/gaotianliuyun/gao/master/js/网易公版影像.js"},
{"key":"drpy_js_酷狗MV","name":"MV┃酷狗[js]","type":3,"api":"https://ghproxy.com/https://raw.githubusercontent.com/gaotianliuyun/gao/master/lib/drpy2.min.js","changeable":0,"ext":"https://ghproxy.com/https://raw.githubusercontent.com/gaotianliuyun/gao/master/js/酷狗MV.js"},
{"key":"drpy_js_酷奇MV","name":"MV┃酷奇[js]","type":3,"api":"https://ghproxy.com/https://raw.githubusercontent.com/gaotianliuyun/gao/master/lib/drpy2.min.js","changeable":0,"ext":"https://ghproxy.com/https://raw.githubusercontent.com/gaotianliuyun/gao/master/js/酷奇MV.js"},

{"key":"csp_xBPQ_来看","name":"影视┃耐看[XBPQ]","type":3,"api":"csp_XBPQ","ext":"https://ghproxy.com/https://raw.githubusercontent.com/gaotianliuyun/gao/master/XBPQ/来看.json"},
{"key":"csp_xBPQ_星辰","name":"影视┃星辰[XBPQ]","type":3,"api":"csp_XBPQ","playerType":"1","ext":"https://ghproxy.com/https://raw.githubusercontent.com/gaotianliuyun/gao/master/XBPQ/星辰.json"},
{"key":"csp_xBPQ_素白","name":"影视┃素白[XBPQ]","type":3,"api":"csp_XBPQ","playerType":"1","ext":"https://ghproxy.com/https://raw.githubusercontent.com/gaotianliuyun/gao/master/XBPQ/素白.json"},

{"key":"csp_XYQBiu_1985电影网","name":"影视┃1985电影网[XYQ]","type":3,"api":"csp_XYQBiu","searchable":1,"quickSearch":1,"filterable":1,"ext":"https://ghproxy.com/https://raw.githubusercontent.com/gaotianliuyun/gao/master/XYQBiu/1985电影网.json"},
{"key":"csp_XYQBiu_大师兄影视","name":"影视┃大师兄影视[XYQ]","type":3,"api":"csp_XYQBiu","searchable":1,"quickSearch":1,"filterable":1,"ext":"https://ghproxy.com/https://raw.githubusercontent.com/gaotianliuyun/gao/master/XYQBiu/大师兄影视.json"},
{"key":"csp_XYQBiu_七小时影院","name":"影视┃七小时影院[XYQ]","type":3,"api":"csp_XYQBiu","searchable":1,"quickSearch":1,"filterable":1,"ext":"https://ghproxy.com/https://raw.githubusercontent.com/gaotianliuyun/gao/master/XYQBiu/七小时影院.json"},
{"key":"csp_XYQBiu_TVB云播","name":"影视┃TVB云播[XYQ]","type":3,"api":"csp_XYQBiu","searchable":1,"quickSearch":1,"filterable":1,"ext":"https://ghproxy.com/https://raw.githubusercontent.com/gaotianliuyun/gao/master/XYQBiu/TVB云播.json"},
{"key":"csp_XYQBiu_骚火电影VIP","name":"影视┃骚火•飞[XYQ]","type":3,"api":"csp_XYQBiu","searchable":1,"quickSearch":1,"filterable":1,"ext":"https://ghproxy.com/https://raw.githubusercontent.com/gaotianliuyun/gao/master/XYQBiu/骚火电影VIP.json"},
{"key":"csp_XYQBiu_Auete影视","name":"影视┃Auete•飞[XYQ]","type":3,"api":"csp_XYQBiu","searchable":1,"quickSearch":1,"filterable":1,"ext":"https://ghproxy.com/https://raw.githubusercontent.com/gaotianliuyun/gao/master/XYQBiu/Auete影视.json"},

{"key":"csp_xb_zbk","name":"影视┃真不卡[XBiu]","type":3,"api":"csp_XBiu","searchable":1,"quickSearch":1,"filterable":0,"ext":"https://www.zbkk.net/vodshow/{cateId}--------{catePg}---.html"},
{"key":"csp_xb_ysgc","name":"影视┃影视工厂[XBiu]","type":3,"api":"csp_XBiu","searchable":1,"quickSearch":1,"filterable":0,"ext":"https://www.ysgc.fun/vodtype/{cateId}-{catePg}.html"},
{"key":"csp_xb_cokemv","name":"影视┃cokemv[XBiu]","type":3,"api":"csp_XBiu","searchable":1,"quickSearch":1,"filterable":0,"ext":"https://cokemv.me/vodshow/{cateId}--------{catePg}---.html"},
{"key":"csp_xb_达达龟","name":"影视┃达达龟[XBiu]","type":3,"api":"csp_XBiu","searchable":1,"quickSearch":1,"filterable":0,"ext":"https://www.dadagui.me/vodshow/{cateId}--------{catePg}---.html"},
{"key":"csp_xb_shm","name":"影视┃神马影视[XBiu]","type":3,"api":"csp_XBiu","searchable":1,"quickSearch":1,"filterable":0,"ext":"https://www.smdyy.cc/show/{cateId}-{area}--{class}-----{catePg}---{year}.html"},
{"key":"csp_xb_fg","name":"影视┃疯狗影视[XBiu]","type":3,"api":"csp_XBiu","searchable":1,"quickSearch":1,"filterable":0,"ext":"https://m.fenggoudy3.com/list-select-id-{cateId}-type--area--year--star--state--order-addtime-p-{catePg}.html"},
{"key":"csp_XP_动漫巴士","name":"影视┃动漫巴士[XPF]","type":3,"api":"csp_XPathFilter","searchable":1,"quickSearch":1,"filterable":1,"ext":"https://ghproxy.com/https://raw.githubusercontent.com/gaotianliuyun/gao/master/json/动漫巴士.json"},
{"key":"csp_XP_dmw","name":"影视┃动漫岛[XPMF]","type":3,"api":"csp_XPathMacFilter","searchable":1,"quickSearch":1,"filterable":1,"ext":"https://ghproxy.com/https://raw.githubusercontent.com/gaotianliuyun/gao/master/json/dmw.json"},
{"key":"csp_XP_gongreng","name":"影视┃工人影视[XPMF]","type":3,"api":"csp_XPathMacFilter","searchable":1,"quickSearch":1,"filterable":1,"ext":"https://ghproxy.com/https://raw.githubusercontent.com/gaotianliuyun/gao/master/json/gongreng.json"},
{"key":"csp_XP_独播库","name":"影视┃独播库•飞[XPMF]","type":3,"api":"csp_XPathMacFilter","playerType":0,"searchable":1,"quickSearch":1,"filterable":1,"ext":"https://ghproxy.com/https://raw.githubusercontent.com/gaotianliuyun/gao/master/json/duboku.json"},

{"key":"bb","name":"配置接口完全免费","type":3,"api":"https://ghproxy.com/https://raw.githubusercontent.com/gaotianliuyun/gao/master/lib/drpy2.min.js","ext":"https://ghproxy.com/https://raw.githubusercontent.com/gaotianliuyun/gao/master/js/drpy.js"},
{"key":"cc","name":"请勿相信视频中任何广告","type":3,"api":"https://ghproxy.com/https://raw.githubusercontent.com/gaotianliuyun/gao/master/lib/drpy2.min.js","ext":"https://ghproxy.com/https://raw.githubusercontent.com/gaotianliuyun/gao/master/js/drpy.js"}
],
"parses":[
{"name":"Json聚合","type":3,"url":"Demo"},
{"name": "飞云","type": 1,"url": "https://daina.hk/api/?key=e1e84ecae847b6e4a1a27fd4611f45f5&url=","ext": {"flag": ["FYNB","mgtv","qiyi","imgo","爱奇艺","奇艺","qq","腾讯","youku","优酷","pptv","PPTV","letv","乐视","leshi","bilibili","哔哩哔哩","哔哩","mgtv","芒果"],"header": {"User-Agent": "okhttp/4.1.0"}}},
{"name": "米饭","type": 1,"url": "https://api.json.icu/api/?key=b1f3b1a9e1c0a42ae969db10bd315a95&url=","ext": {"flag": ["爱奇艺","奇艺","qq","腾讯","youku","优酷","pptv","PPTV","letv","乐视","leshi","bilibili","哔哩哔哩","哔哩","mgtv","芒果","芒果"],"header": {"User-Agent": "okhttp/4.1.0"}}},
{"name":"饭饭","type":1,"url":"http://api.888484.xyz/神秘哥哥/super.php?v=","ext":{"flag":["qq","腾讯","qiyi","爱奇艺","奇艺","youku","优酷","tucheng","sohu","搜狐","letv","乐视","mgtv","芒果","tnmb","seven","yzm","aliyun","RJuMao","bilibili","1905","xinvip","XAL","qiqi","XALS","YuMi-vip"]}},
{"name":"虾米","type":0,"url":"https://jx.xmflv.com/?url=","ext":{"flag":["qq","腾讯","qiyi","爱奇艺","奇艺","youku","优酷","sohu","搜狐","letv","乐视","mgtv","芒果","imgo","rx","ltnb","bilibili","1905","xigua"]}},
{"name":"PM","url":"https://www.playm3u8.cn/jiexi.php?url=","type":0,"ext":{"flag":["qiyi","imgo","爱奇艺","奇艺","qq","腾讯","youku","优酷","pptv","PPTV","letv","乐视","leshi","bilibili","哔哩哔哩","哔哩","mgtv","芒果","sohu","xigua","fun","风行"],"header":{"User-Agent":"Mozilla/5.0"}},"header":{"User-Agent":"Mozilla/5.0"}},
{"name":"全民","url":"http://api.wpsseo.cn/?v=","type":0,"ext":{"flag":["qiyi","imgo","爱奇艺","奇艺","qq","腾讯","youku","优酷","pptv","PPTV","letv","乐视","leshi","bilibili","哔哩哔哩","哔哩","mgtv","芒果","sohu","xigua","fun","风行"],"header":{"User-Agent":"Mozilla/5.0"}},"header":{"User-Agent":"Mozilla/5.0"}},
{"name":"m3u8","type":0,"url":"https://jx.m3u8.tv/jiexi/?url="},
{"name":"8090","url":"https://www.8090.la/8090/?url=","type":0,"ext":{"flag":["qiyi","imgo","爱奇艺","奇艺","qq","腾讯","youku","优酷","pptv","PPTV","letv","乐视","leshi","bilibili","哔哩哔哩","哔哩","mgtv","芒果","sohu","xigua","fun","风行"],"header":{"User-Agent":"Mozilla/5.0"}},"header":{"User-Agent":"Mozilla/5.0"}},
{"name":"看看","type":0,"url":"https://jx.m3u8.pw/?url="},
{"name":"巧技","type":1,"url":"http://pandown.pro/app/kkdy.php?url=","ext":{"flag":["qq","腾讯","qiyi","爱奇艺","奇艺","youku","优酷","sohu","搜狐","letv","乐视","mgtv","芒果","rx","ltnb","bilibili","1905","xigua"]}},
{"name":"左岸","type":1,"url":"https://api.tyun77.cn/api.php/provide/parseDicturl?url=","ext":{"flag":["爱奇艺","奇艺","qq","腾讯","youku","优酷","pptv","PPTV","letv","乐视","leshi","bilibili","哔哩哔哩","哔哩","mgtv","芒果","芒果"],"header":{"User-Agent":"okhttp/3.12.0"}}},
{"name":"世界","type":1,"url":"http://175.178.183.192:84/api/?key=f3913eb3f85a8298b3e6e427b8712b2e&url=","ext":{"flag":["qq","mgtv","YuMi-vip"]}},
{"name":"咸鱼","type":0,"url":"https://jx.xyflv.cc/?url=","ext":{"header":{"user-agent":"Mozilla/5.0(Linux;Android13;V2049ABuild/TP1A.220624.014;wv)AppleWebKit/537.36(KHTML,likeGecko)Version/4.0Chrome/116.0.0.0MobileSafari/537.36","referer":"https://www.xyflv.cc/"}}},
{"name":"云解析","type":0,"url":"https://jx.yparse.com/index.php?url=","ext":{"header":{"user-agent":"Mozilla/5.0(Linux;Android13;V2049ABuild/TP1A.220624.014;wv)AppleWebKit/537.36(KHTML,likeGecko)Version/4.0Chrome/116.0.0.0MobileSafari/537.36"}}},
{"name":"爱豆","type":0,"url":"https://jx.aidouer.net/?url=","ext":{"header":{"user-agent":"Mozilla/5.0(Linux;Android13;V2049ABuild/TP1A.220624.014;wv)AppleWebKit/537.36(KHTML,likeGecko)Version/4.0Chrome/116.0.0.0MobileSafari/537.36","referer":"https://jiejie.uk/"}}}
],
"flags":["youku","优酷","优 酷","优酷视频", "qq","腾讯","腾 讯","腾讯视频", "iqiyi", "qiyi","奇艺","爱奇艺","爱 奇 艺", "m1905", "xigua", "letv","leshi","乐视","乐 视", "sohu","搜狐","搜 狐","搜狐视频", "tudou","mgtv","芒果","imgo","芒果TV","芒 果 T V", "bilibili","哔 哩","哔 哩 哔 哩","SPA","YuMi-vip","pptv","PPTV","ltnb","rx","SLYS4k","tucheng","BYGA","luanzi","dxzy","QEYSS","aliyun","AliS","122","chuangying","CL4K","xfyun","wuduzy","wasu","renrenmi","ppayun","haiwaikan","cool","dbm3u8","xmm","funshion","ruyi1080","ruyib1080"],
"doh":[{"name":"Google","url":"https://dns.google/dns-query","ips":["8.8.4.4","8.8.8.8"]},{"name":"Cloudflare","url":"https://cloudflare-dns.com/dns-query","ips":["1.1.1.1","1.0.0.1","2606:4700:4700::1111","2606:4700:4700::1001"]},{"name":"AdGuard","url":"https://dns.adguard.com/dns-query","ips":["94.140.14.140","94.140.14.141"]},{"name":"DNSWatch","url":"https://resolver2.dns.watch/dns-query","ips":["84.200.69.80","84.200.70.40"]},{"name":"Quad9","url":"https://dns.quad9.net/dns-quer","ips":["9.9.9.9","149.112.112.112"]}],
"rules":[
{"name":"proxy","hosts":["raw.githubusercontent.com","googlevideo.com","cdn.v82u1l.com","cdn.iz8qkg.com","cdn.kin6c1.com","c.biggggg.com","c.olddddd.com","haiwaikan.com","www.histar.tv","youtube.com","uhibo.com",".*boku.*",".*nivod.*",".*ulivetv.*"]},
{"name":"七新嗅探","hosts":["api.52wyb.com"],"regex":["m3u8?pt=m3u8"]},
{"name":"夜市","hosts":["yeslivetv.com"],"script":["document.getElementsByClassName('vjs-big-play-button')[0].click()"]},
{"name":"毛驢","hosts":["www.maolvys.com"],"script":["document.getElementsByClassName('swal-buttonswal-button--confirm')[0].click()"]},
{"name":"海外看","hosts":["haiwaikan"],"regex":["10.0099","10.3333","16.0599","8.1748","10.85"]},
{"name":"索尼","hosts":["suonizy"],"regex":["15.1666","15.2666"]},
{"name":"暴风廣告","hosts":["bfzy"],"regex":["#EXT-X-DISCONTINUITY\\r*\\n*#EXTINF:3,[\\s\\S]*?#EXT-X-DISCONTINUITY"]},
{"name":"磁力廣告","hosts":["magnet"],"regex":["更多","社區","xuu","最新","最新","直播","更新","社区","有趣","有趣","英皇体育","全中文AV在线","澳门皇冠赌场","哥哥快来","美女荷官","裸聊","新片首发","UUE29"]},
{"name":"星星","hosts":["aws.ulivetv.net"],"regex":["#EXT-X-DISCONTINUITY\\r*\\n*#EXTINF:8,[\\s\\S]*?#EXT-X-DISCONTINUITY"]},
{"name":"量子廣告","hosts":["vip.lz","hd.lz","v.cdnlz1","v.cdnlz"],"regex":["18.5333"]},
{"name":"非凡廣告","hosts":["vip.ffzy","hd.ffzy"],"regex":["25.0666","25.08"]},
{"name":"火山嗅探","hosts":["huoshan.com"],"regex":["item_id="]},
{"name":"抖音嗅探","hosts":["douyin.com"],"regex":["is_play_url="]},
{"name":"農民嗅探","hosts":["toutiaovod.com"],"regex":["video/tos/cn"]}
]
}
